<?xml version="1.0" encoding="utf-8"?>
<!-- Generator: Adobe Illustrator 16.0.3, SVG Export Plug-In . SVG Version: 6.00 Build 0)  -->
<!DOCTYPE svg PUBLIC "-//W3C//DTD SVG 1.1//EN" "http://www.w3.org/Graphics/SVG/1.1/DTD/svg11.dtd" [
	<!ENTITY ns_extend "http://ns.adobe.com/Extensibility/1.0/">
	<!ENTITY ns_ai "http://ns.adobe.com/AdobeIllustrator/10.0/">
	<!ENTITY ns_graphs "http://ns.adobe.com/Graphs/1.0/">
	<!ENTITY ns_vars "http://ns.adobe.com/Variables/1.0/">
	<!ENTITY ns_imrep "http://ns.adobe.com/ImageReplacement/1.0/">
	<!ENTITY ns_sfw "http://ns.adobe.com/SaveForWeb/1.0/">
	<!ENTITY ns_custom "http://ns.adobe.com/GenericCustomNamespace/1.0/">
	<!ENTITY ns_adobe_xpath "http://ns.adobe.com/XPath/1.0/">
]>
<svg version="1.1" id="Layer_1" xmlns:x="&ns_extend;" xmlns:i="&ns_ai;" xmlns:graph="&ns_graphs;"
	 xmlns="http://www.w3.org/2000/svg" xmlns:xlink="http://www.w3.org/1999/xlink" x="0px" y="0px" width="40px" height="40px"
	 viewBox="0 0 40 40" enable-background="new 0 0 40 40" xml:space="preserve">
<metadata>
	<sfw  xmlns="&ns_sfw;">
		<slices></slices>
		<sliceSourceBounds  width="1268.232" height="552.973" x="-88.998" y="-377.64" bottomLeftOrigin="true"></sliceSourceBounds>
	</sfw>
</metadata>
<g>
	<g>
		<path fill="#3a7ebc" d="M20,0C8.973,0,0,8.973,0,20s8.973,20,20,20s20-8.973,20-20S31.027,0,20,0L20,0z M20,38.46
			C9.821,38.46,1.54,30.179,1.54,20S9.821,1.541,20,1.541S38.46,9.821,38.46,20S30.179,38.46,20,38.46L20,38.46z M20,38.46"/>
	</g>
	<path fill="#3a7ebc" d="M32.201,31.325l-2.821-5.646c-0.017-0.041-0.041-0.078-0.069-0.106c-0.017-0.023-0.031-0.045-0.053-0.067
		l-0.005-0.008l-0.187-0.182V10.013c-0.002-1.255-1.025-2.278-2.279-2.284H16.35l-0.022,0.005c-0.04,0.007-0.079,0.018-0.117,0.032
		h-0.037l-0.049,0.022c-0.071,0.032-0.137,0.077-0.191,0.131l-2.254,2.258l-1.701-1.699c-0.496-0.482-1.147-0.749-1.839-0.749
		h-0.013C9.478,7.731,8.849,8.001,8.4,8.47c-0.435,0.457-0.673,1.056-0.671,1.689c0.004,0.65,0.261,1.262,0.723,1.719l1.204,1.207
		c-0.049,0.147-0.075,0.303-0.075,0.457c-0.002,0.387,0.148,0.752,0.421,1.027l0.934,0.943v4.088l0.056,9.19
		c0.002,1.257,1.025,2.278,2.284,2.278h13.51c0.568-0.003,1.117-0.222,1.534-0.605l2.969,1.718c0.1,0.058,0.212,0.09,0.329,0.09
		c0.1,0,0.2-0.024,0.293-0.069C32.231,32.039,32.362,31.646,32.201,31.325z M30.059,29.96L27.3,28.359l1.309-1.302L30.059,29.96z
		 M26.802,29.764H13.275c-0.537,0-0.977-0.438-0.979-0.975L12.24,19.6v-2.778l3.699,3.708c0.063,0.064,0.136,0.113,0.219,0.146
		l0.045,0.02h0.053c0.045,0.011,0.092,0.018,0.147,0.02h0.073c0.15-0.009,0.288-0.072,0.389-0.183l0.109-0.107l1.375,1.326h-4.357
		c-0.36,0-0.653,0.293-0.653,0.653s0.293,0.654,0.653,0.654h5.705l6.105,5.918c0.043,0.039,0.087,0.072,0.126,0.093l1.136,0.658
		C26.98,29.751,26.892,29.764,26.802,29.764z M10.93,13.652c-0.024-0.028-0.039-0.063-0.039-0.103
		c0.001-0.039,0.017-0.075,0.045-0.104c0.004-0.003,0.005-0.006,0.009-0.008h0.008l0.03-0.011c0,0.004,0.002,0.008,0.004,0.01
		c0.092,0.228,0.3,0.38,0.542,0.403l3.969,3.968l-0.211,0.212l-4.226-4.224l0.014-0.024L10.93,13.652z M9.037,10.148
		c0.001-0.296,0.12-0.576,0.326-0.787c0.203-0.206,0.486-0.324,0.779-0.325l0.028-0.001c0.336,0,0.665,0.139,0.901,0.383l3.572,3.57
		l-1.052,1.046l-1.452-1.451l-0.124-0.065c-0.056-0.052-0.118-0.101-0.184-0.146l-0.065-0.042l-0.154-0.08l-0.087-0.04l-0.198-0.059
		h-0.083c-0.038-0.002-0.075-0.004-0.112-0.004c-0.04,0-0.077,0.002-0.117,0.004h-0.004c-0.033-0.002-0.067-0.003-0.101-0.003
		c-0.034,0-0.068,0.001-0.102,0.003h-0.089l-0.139,0.039l-1.219-1.222c-0.21-0.212-0.33-0.507-0.326-0.809V10.148z M17.048,11.559
		V9.036h9.735c0.539,0,0.977,0.438,0.977,0.977v14.021l-1.062-1.044c0.216-0.105,0.364-0.329,0.364-0.587
		c0-0.36-0.293-0.653-0.651-0.653h-0.993l-0.295-0.295h1.288c0.358,0,0.651-0.294,0.651-0.653s-0.293-0.653-0.651-0.653h-2.627
		l-0.297-0.296h2.924c0.358,0,0.651-0.294,0.651-0.654c0-0.359-0.293-0.652-0.651-0.652H22.15l-0.297-0.296h4.558
		c0.358,0,0.651-0.293,0.651-0.653s-0.293-0.653-0.651-0.653h-5.878l-4.009-3.931C16.86,12.606,17.048,12.09,17.048,11.559z
		 M16.415,18.728l0.212,0.211l-0.212,0.212l-0.21-0.212L16.415,18.728z M20.415,21.936l-2.507-2.438l0.102-0.1
		c0.251-0.254,0.251-0.667,0-0.922l-3.501-3.503l1.063-1.063L27.76,25.863v0.189l-1.532,1.533L20.415,21.936z M15.743,9.954v1.604
		c-0.002,0.191-0.059,0.377-0.162,0.533L14.584,11.1L15.743,9.954z"/>
</g>
</svg>
