<?xml version="1.0" encoding="utf-8"?>
<!-- Generator: Adobe Illustrator 16.0.3, SVG Export Plug-In . SVG Version: 6.00 Build 0)  -->
<!DOCTYPE svg PUBLIC "-//W3C//DTD SVG 1.1//EN" "http://www.w3.org/Graphics/SVG/1.1/DTD/svg11.dtd" [
	<!ENTITY ns_extend "http://ns.adobe.com/Extensibility/1.0/">
	<!ENTITY ns_ai "http://ns.adobe.com/AdobeIllustrator/10.0/">
	<!ENTITY ns_graphs "http://ns.adobe.com/Graphs/1.0/">
	<!ENTITY ns_vars "http://ns.adobe.com/Variables/1.0/">
	<!ENTITY ns_imrep "http://ns.adobe.com/ImageReplacement/1.0/">
	<!ENTITY ns_sfw "http://ns.adobe.com/SaveForWeb/1.0/">
	<!ENTITY ns_custom "http://ns.adobe.com/GenericCustomNamespace/1.0/">
	<!ENTITY ns_adobe_xpath "http://ns.adobe.com/XPath/1.0/">
]>
<svg version="1.1" id="Layer_1" xmlns:x="&ns_extend;" xmlns:i="&ns_ai;" xmlns:graph="&ns_graphs;"
	 xmlns="http://www.w3.org/2000/svg" xmlns:xlink="http://www.w3.org/1999/xlink" x="0px" y="0px" width="40px" height="40px"
	 viewBox="0 0 40 40" enable-background="new 0 0 40 40" xml:space="preserve">
<metadata>
	<sfw  xmlns="&ns_sfw;">
		<slices></slices>
		<sliceSourceBounds  width="1268.232" height="553.773" x="-88.998" y="-378.44" bottomLeftOrigin="true"></sliceSourceBounds>
	</sfw>
</metadata>
<g>
	<g>
		<path fill="#FFFFFF" d="M28.524,32.098H11.476c-0.035,0-0.064-0.029-0.064-0.064V8.436c0-0.035,0.029-0.064,0.064-0.064h12.422
			v3.402c0,0.711,0.578,1.29,1.29,1.29h3.401v18.97C28.589,32.068,28.56,32.098,28.524,32.098L28.524,32.098z M25.188,11.838
			c-0.036,0-0.063-0.029-0.063-0.064V9.238l2.598,2.6H25.188L25.188,11.838z M29.814,12.444c-0.002-0.157-0.063-0.312-0.178-0.428
			l-4.693-4.691l-0.001-0.001c-0.111-0.11-0.264-0.179-0.433-0.179H11.476c-0.711,0-1.29,0.579-1.29,1.29v23.598
			c0,0.711,0.579,1.29,1.29,1.29h17.049c0.712,0,1.29-0.579,1.29-1.29V12.45C29.814,12.448,29.814,12.447,29.814,12.444
			L29.814,12.444z"/>
	</g>
	<g>
		<path fill="#FFFFFF" d="M25.425,15.531h-10.85c-0.338,0-0.611,0.274-0.611,0.612c0,0.339,0.273,0.614,0.611,0.614h10.85
			c0.338,0,0.612-0.275,0.612-0.614C26.037,15.806,25.763,15.531,25.425,15.531L25.425,15.531z"/>
	</g>
	<g>
		<path fill="#FFFFFF" d="M25.425,19.229h-10.85c-0.338,0-0.611,0.275-0.611,0.613s0.273,0.612,0.611,0.612h10.85
			c0.338,0,0.612-0.274,0.612-0.612S25.763,19.229,25.425,19.229L25.425,19.229z"/>
	</g>
	<g>
		<path fill="#FFFFFF" d="M25.425,22.929h-10.85c-0.338,0-0.611,0.274-0.611,0.612c0,0.339,0.273,0.613,0.611,0.613h10.85
			c0.338,0,0.612-0.274,0.612-0.613C26.037,23.203,25.763,22.929,25.425,22.929L25.425,22.929z"/>
	</g>
	<g>
		<path fill="#FFFFFF" d="M20,26.628h-5.425c-0.338,0-0.611,0.273-0.611,0.612c0,0.338,0.273,0.612,0.611,0.612H20
			c0.338,0,0.613-0.274,0.613-0.612C20.613,26.901,20.338,26.628,20,26.628L20,26.628z"/>
	</g>
</g>
<g>
	<g>
		<g>
			<g>
				<g>
					<path fill="#FFFFFF" d="M20.826,38.648c-10.282,0.457-19.02-7.537-19.476-17.82C0.896,10.545,8.89,1.809,19.172,1.354
						c10.283-0.457,19.019,7.537,19.476,17.82S31.111,38.193,20.826,38.648 M20.886,39.98c11.036-0.488,19.584-9.832,19.094-20.867
						C39.491,8.082,30.148-0.469,19.113,0.021S-0.47,9.854,0.021,20.888C0.509,31.921,9.851,40.471,20.886,39.98L20.886,39.98z"/>
				</g>
			</g>
		</g>
	</g>
	<g>
		
			<rect x="19.224" y="0.103" transform="matrix(0.7377 0.6751 -0.6751 0.7377 18.645 -8.4705)" fill="#FFFFFF" width="1.999" height="39.311"/>
	</g>
</g>
</svg>
