<?xml version="1.0" encoding="utf-8"?>
<!-- Generator: Adobe Illustrator 16.0.3, SVG Export Plug-In . SVG Version: 6.00 Build 0)  -->
<!DOCTYPE svg PUBLIC "-//W3C//DTD SVG 1.1//EN" "http://www.w3.org/Graphics/SVG/1.1/DTD/svg11.dtd">
<svg version="1.1" id="Layer_1" xmlns="http://www.w3.org/2000/svg" xmlns:xlink="http://www.w3.org/1999/xlink" x="0px" y="0px"
	 width="10px" height="10px" viewBox="0 0 10 10" enable-background="new 0 0 10 10" xml:space="preserve">
<g>
	<path fill="#464546" d="M4.999,0C2.238,0,0,2.238,0,4.999S2.238,10,4.999,10S10,7.76,10,4.999S7.76,0,4.999,0L4.999,0z M6.04,7.75
		C5.782,7.851,5.577,7.928,5.425,7.981c-0.153,0.054-0.331,0.08-0.533,0.08c-0.313,0-0.556-0.076-0.728-0.229
		C3.99,7.682,3.906,7.487,3.906,7.254c0-0.091,0.006-0.185,0.019-0.279c0.012-0.095,0.032-0.2,0.062-0.32l0.322-1.139
		c0.029-0.109,0.054-0.213,0.072-0.308C4.399,5.108,4.41,5.02,4.41,4.939c0-0.146-0.031-0.246-0.091-0.304
		C4.259,4.577,4.146,4.551,3.976,4.551c-0.082,0-0.169,0.012-0.256,0.037C3.633,4.614,3.559,4.64,3.497,4.662l0.084-0.35
		c0.211-0.086,0.413-0.159,0.605-0.221c0.192-0.063,0.374-0.093,0.546-0.093c0.31,0,0.548,0.076,0.715,0.225
		c0.168,0.149,0.252,0.344,0.252,0.583c0,0.05-0.006,0.137-0.017,0.261C5.671,5.193,5.65,5.307,5.619,5.41l-0.32,1.135
		c-0.027,0.091-0.05,0.196-0.072,0.312C5.206,6.973,5.195,7.062,5.195,7.121c0,0.151,0.035,0.255,0.102,0.309
		C5.364,7.485,5.48,7.512,5.647,7.512c0.079,0,0.166-0.015,0.265-0.041c0.098-0.027,0.17-0.052,0.215-0.072L6.04,7.75z M5.984,3.146
		c-0.15,0.139-0.33,0.208-0.541,0.208c-0.209,0-0.391-0.069-0.542-0.208C4.753,3.007,4.677,2.838,4.677,2.64
		c0-0.197,0.076-0.366,0.225-0.507c0.151-0.139,0.333-0.209,0.542-0.209c0.211,0,0.391,0.07,0.541,0.209
		c0.149,0.141,0.224,0.31,0.224,0.507C6.208,2.838,6.134,3.007,5.984,3.146L5.984,3.146z M5.984,3.146"/>
</g>
</svg>
