<?xml version="1.0" encoding="utf-8"?>
<!-- Generator: Adobe Illustrator 16.0.3, SVG Export Plug-In . SVG Version: 6.00 Build 0)  -->
<!DOCTYPE svg PUBLIC "-//W3C//DTD SVG 1.1//EN" "http://www.w3.org/Graphics/SVG/1.1/DTD/svg11.dtd" [
	<!ENTITY ns_extend "http://ns.adobe.com/Extensibility/1.0/">
	<!ENTITY ns_ai "http://ns.adobe.com/AdobeIllustrator/10.0/">
	<!ENTITY ns_graphs "http://ns.adobe.com/Graphs/1.0/">
	<!ENTITY ns_vars "http://ns.adobe.com/Variables/1.0/">
	<!ENTITY ns_imrep "http://ns.adobe.com/ImageReplacement/1.0/">
	<!ENTITY ns_sfw "http://ns.adobe.com/SaveForWeb/1.0/">
	<!ENTITY ns_custom "http://ns.adobe.com/GenericCustomNamespace/1.0/">
	<!ENTITY ns_adobe_xpath "http://ns.adobe.com/XPath/1.0/">
]>
<svg version="1.1" id="Layer_1" xmlns:x="&ns_extend;" xmlns:i="&ns_ai;" xmlns:graph="&ns_graphs;"
	 xmlns="http://www.w3.org/2000/svg" xmlns:xlink="http://www.w3.org/1999/xlink" x="0px" y="0px" width="60px" height="60px"
	 viewBox="0 0 60 60" enable-background="new 0 0 60 60" xml:space="preserve">
<metadata>
	<sfw  xmlns="&ns_sfw;">
		<slices></slices>
		<sliceSourceBounds  height="1926.426" width="1031.334" y="-1926.426" x="-126" bottomLeftOrigin="true"></sliceSourceBounds>
	</sfw>
</metadata>
<g>
	<g>
		<path fill="#E86624" d="M30,1.5c15.715,0,28.5,12.785,28.5,28.5S45.715,58.5,30,58.5S1.5,45.715,1.5,30S14.285,1.5,30,1.5 M30,0
			C13.432,0,0,13.432,0,30c0,16.569,13.432,30,30,30s30-13.431,30-30C60,13.432,46.568,0,30,0L30,0z"/>
	</g>
</g>
<path fill="#F16024" d="M20.896,50.285c-1.123,0-2.1-0.287-2.902-0.854l-3.13-2.209c-0.731-0.516-1.172-1.326-1.208-2.225
	c-0.036-0.895,0.339-1.737,1.03-2.313l8.102-6.729c0.513-0.424,1.162-0.658,1.829-0.658c0.594,0,1.162,0.182,1.645,0.523
	l2.079,1.467c0.227,0.159,0.491,0.242,0.765,0.242c0.379,0,0.739-0.163,0.988-0.447c1.198-1.358,2.36-2.832,3.453-4.379
	c1.085-1.538,2.085-3.126,2.971-4.721c0.324-0.588,0.155-1.327-0.395-1.719l-2.079-1.466c-1.054-0.743-1.479-2.109-1.035-3.32
	l3.628-9.888c0.31-0.841,0.978-1.477,1.834-1.745c0.277-0.087,0.565-0.131,0.857-0.131c0.59,0,1.157,0.182,1.641,0.525l3.13,2.21
	c2.186,1.542,2.804,4.944,1.74,9.581c-1.021,4.456-3.477,9.595-6.918,14.469c-3.435,4.866-7.453,8.9-11.314,11.361
	c-1.972,1.253-3.795,2.029-5.417,2.309C21.737,50.246,21.302,50.285,20.896,50.285z M16.365,46.813l2.32,1.641
	c0.592,0.416,1.335,0.627,2.209,0.627c1.676,0,3.773-0.771,6.067-2.23c3.73-2.373,7.63-6.294,10.98-11.041
	c3.351-4.748,5.739-9.735,6.727-14.044c0.936-4.073,0.476-7.11-1.26-8.335l-2.323-1.642l-4.813,13.115l0.538,0.383
	c1.057,0.745,1.38,2.154,0.754,3.28c-0.91,1.638-1.933,3.262-3.04,4.829c-1.117,1.584-2.306,3.092-3.532,4.481
	c-0.478,0.542-1.165,0.853-1.887,0.853c-0.523,0-1.027-0.16-1.456-0.464l-0.492-0.347L16.365,46.813z M24.615,36.497
	c-0.388,0-0.765,0.136-1.062,0.383l-8.103,6.729c-0.4,0.332-0.618,0.821-0.597,1.342c0.012,0.321,0.116,0.63,0.301,0.891
	l0.188,0.263l10.8-8.903l-0.571-0.402C25.292,36.602,24.961,36.497,24.615,36.497z M39.318,10.915c-0.092,0-0.185,0.007-0.276,0.022
	c-0.074,0.015-0.148,0.032-0.221,0.056c-0.49,0.151-0.878,0.521-1.06,1.011l-3.628,9.889c-0.258,0.702-0.012,1.495,0.601,1.928
	l0.525,0.368l4.817-13.127l-0.315-0.086C39.614,10.936,39.466,10.915,39.318,10.915z"/>
</svg>
