<?xml version="1.0" encoding="utf-8"?>
<!-- Generator: Adobe Illustrator 16.0.3, SVG Export Plug-In . SVG Version: 6.00 Build 0)  -->
<!DOCTYPE svg PUBLIC "-//W3C//DTD SVG 1.1//EN" "http://www.w3.org/Graphics/SVG/1.1/DTD/svg11.dtd" [
	<!ENTITY ns_extend "http://ns.adobe.com/Extensibility/1.0/">
	<!ENTITY ns_ai "http://ns.adobe.com/AdobeIllustrator/10.0/">
	<!ENTITY ns_graphs "http://ns.adobe.com/Graphs/1.0/">
	<!ENTITY ns_vars "http://ns.adobe.com/Variables/1.0/">
	<!ENTITY ns_imrep "http://ns.adobe.com/ImageReplacement/1.0/">
	<!ENTITY ns_sfw "http://ns.adobe.com/SaveForWeb/1.0/">
	<!ENTITY ns_custom "http://ns.adobe.com/GenericCustomNamespace/1.0/">
	<!ENTITY ns_adobe_xpath "http://ns.adobe.com/XPath/1.0/">
]>
<svg version="1.1" id="Layer_1" xmlns:x="&ns_extend;" xmlns:i="&ns_ai;" xmlns:graph="&ns_graphs;"
	 xmlns="http://www.w3.org/2000/svg" xmlns:xlink="http://www.w3.org/1999/xlink" x="0px" y="0px" width="60px" height="60px"
	 viewBox="0 0 60 60" enable-background="new 0 0 60 60" xml:space="preserve">
<metadata>
	<sfw  xmlns="&ns_sfw;">
		<slices></slices>
		<sliceSourceBounds  height="1926.426" width="1031.334" y="-1926.426" x="-126" bottomLeftOrigin="true"></sliceSourceBounds>
	</sfw>
</metadata>
<g>
	<g>
		<path fill="#E86624" d="M30,1.498c15.717,0,28.502,12.786,28.502,28.502S45.717,58.502,30,58.502
			C14.284,58.502,1.498,45.716,1.498,30S14.284,1.498,30,1.498 M30,0C13.432,0,0,13.432,0,30c0,16.569,13.432,30,30,30
			s30-13.431,30-30C60,13.432,46.568,0,30,0L30,0z"/>
	</g>
</g>
<path fill="#E86624" d="M31.877,6.695c-2.896,0-5.259,2.367-5.259,5.263c0,2.897,2.362,5.264,5.259,5.264
	c2.9,0,5.264-2.366,5.264-5.264C37.141,9.063,34.777,6.695,31.877,6.695z M31.877,8.2c2.089,0,3.76,1.675,3.76,3.758
	c0,2.084-1.671,3.76-3.76,3.76c-2.083,0-3.756-1.676-3.756-3.76C28.121,9.875,29.794,8.2,31.877,8.2z M26.632,17.973
	c-1.646,0-3.233,0.599-4.469,1.685l-3.289,2.894c-0.633,0.555-1.06,1.306-1.213,2.133c-0.222,1.183-0.595,3.195-0.915,4.932
	c-0.161,0.866-0.311,1.663-0.42,2.25c-0.054,0.296-0.098,0.536-0.129,0.71c-0.033,0.173-0.044,0.229-0.057,0.31
	c-0.042,0.261-0.045,0.511-0.045,0.511c0,0.012,0,0.025,0,0.037c0.028,1.421,1.201,2.581,2.629,2.581
	c1.095,0,2.039-0.677,2.433-1.639c0.008-0.014,0.099-0.201,0.148-0.479c0.004-0.022,0.351-1.893,0.683-3.686
	c0.309-1.659,0.567-3.06,0.61-3.298l1.801-1.502l-1.396,6.476c-0.097,0.445-0.14,0.898-0.135,1.35l0,0
	c-0.016,0.039-0.029,0.078-0.036,0.12l-1.815,7.917l-4.96,7.295c-0.09,0.13-0.306,0.282-0.305,0.439
	c-0.201,0.401-0.41,0.809-0.41,1.289c0,1.652,1.354,3.007,3.007,3.007c0.882,0,1.635-0.433,2.185-1.04
	c0.11-0.056,0.206-0.137,0.276-0.236l5.602-7.972c0.042-0.058,0.073-0.123,0.097-0.189l0.882-2.598l7.997,10.688
	c0.081,0.104,0.186,0.188,0.308,0.24c0.663,0.761,1.646,1.257,2.753,1.059c1.203-0.217,2.154-1.16,2.395-2.353
	c0.002-0.002,0.002-0.002,0.002-0.002c0.139-0.703-0.016-1.368-0.305-1.937c-0.018-0.098-0.051-0.192-0.107-0.277l-9.061-14.288
	l1.079-4.793l0.296,0.423c0.266,0.374,0.635,0.663,1.067,0.823l7.661,2.833c0.047,0.016,0.094,0.027,0.143,0.036
	c0.1,0.017,0.238,0.037,0.41,0.037c1.443,0,2.631-1.186,2.631-2.63c0-0.936-0.496-1.758-1.234-2.223
	c-0.041-0.027-0.084-0.049-0.131-0.067l-6.584-2.514l-2.6-4.199c0.215-2.177-1.517-4.152-3.764-4.152H26.632z M39.158,49.495
	c0.201,0.316,0.295,0.687,0.209,1.111c-0.119,0.573-0.617,1.065-1.186,1.17c-0.676,0.122-1.238-0.181-1.553-0.675l-0.412-0.548
	L25.291,35.953c-0.803-1.072-1.103-2.439-0.82-3.75l1.859-8.605c0.088-0.407-0.17-0.81-0.575-0.895
	c-0.228-0.049-0.464,0.009-0.643,0.157l-3.683,3.073c-0.136,0.113-0.228,0.269-0.259,0.441c0,0-0.328,1.772-0.66,3.563
	s-0.659,3.549-0.685,3.69c-0.007,0.037-0.049,0.154-0.049,0.154c-0.003,0.007-0.007,0.015-0.009,0.021
	c-0.169,0.413-0.564,0.707-1.044,0.707c-0.622,0-1.106-0.485-1.121-1.103c0.002-0.039,0.012-0.222,0.021-0.282
	c0-0.002,0-0.002,0-0.002c-0.008,0.046,0.019-0.104,0.05-0.275c0.032-0.173,0.075-0.416,0.131-0.709
	c0.108-0.589,0.257-1.384,0.416-2.251c0.322-1.733,0.697-3.746,0.917-4.932v-0.002c0.093-0.494,0.346-0.942,0.728-1.275l3.289-2.894
	c0.961-0.846,2.195-1.31,3.477-1.31h3.714c1.476,0,2.548,1.338,2.222,2.777l-2.732,12.118c-0.044,0.196-0.007,0.399,0.1,0.568
	l8.837,13.93L39.158,49.495z M33.658,24.254l1.907,3.075c0.085,0.142,0.217,0.25,0.372,0.308l6.699,2.558
	c0.311,0.204,0.518,0.536,0.518,0.934c0,0.631-0.494,1.128-1.127,1.128c-0.02,0-0.072-0.009-0.113-0.014l-7.581-2.801
	c0,0,0,0,0-0.002c-0.141-0.054-0.266-0.148-0.354-0.273l-1.081-1.543L33.658,24.254z M23.704,36.274
	c0.118,0.199,0.243,0.394,0.382,0.578l2.212,2.955l-1.18,3.472l-5.492,7.817c-0.002,0.002-0.002,0.002-0.002,0.002
	c-0.018,0.019-0.033,0.039-0.048,0.061c-0.275,0.388-0.715,0.64-1.228,0.64c-0.839,0-1.503-0.663-1.503-1.502
	c0-0.323,0.102-0.612,0.276-0.859c1.211-1.731,0.167-0.768-0.14-1.017l0.555,0.418l4.793-6.824c0.056-0.081,0.097-0.171,0.117-0.264
	L23.704,36.274z"/>
</svg>
