<?xml version="1.0" encoding="utf-8"?>
<!-- Generator: Adobe Illustrator 16.0.3, SVG Export Plug-In . SVG Version: 6.00 Build 0)  -->
<!DOCTYPE svg PUBLIC "-//W3C//DTD SVG 1.1//EN" "http://www.w3.org/Graphics/SVG/1.1/DTD/svg11.dtd">
<svg version="1.1" id="Layer_1" xmlns="http://www.w3.org/2000/svg" xmlns:xlink="http://www.w3.org/1999/xlink" x="0px" y="0px"
	 width="60px" height="60px" viewBox="0 0 60 60" enable-background="new 0 0 60 60" xml:space="preserve">
<g>
	<polygon fill="none" stroke="#E86624" stroke-width="1.5" stroke-miterlimit="10" points="32.739,24.82 29.999,19.27 27.26,24.82 
		21.133,25.711 25.565,30.032 24.52,36.133 29.999,33.255 35.479,36.133 34.435,30.032 38.866,25.711 	"/>
	<g>
		<path fill="#E86624" d="M30,1.498c15.716,0,28.502,12.786,28.502,28.502S45.716,58.502,30,58.502
			C14.284,58.502,1.498,45.716,1.498,30S14.284,1.498,30,1.498 M29.999,50.991c0.673,0,1.315-0.322,1.718-0.86
			c0.82-1.095,1.971-1.687,3.516-1.811l0.16-0.013l0.028-0.003l0.028-0.003c6.638-0.778,11.644-6.411,11.644-13.103
			c0-4.033-0.928-6.531-1.686-8.572c-0.512-1.375-0.916-2.462-0.916-3.773c0-2.732,1.684-4.084,1.752-4.138
			c0.484-0.369,0.791-0.931,0.845-1.571c0.038-0.619-0.191-1.225-0.626-1.655l-5.85-5.851c-0.406-0.405-0.945-0.628-1.518-0.628
			s-1.111,0.223-1.517,0.628c-0.073,0.069-1.42,1.321-3.03,1.321c-1.275,0-2.521-0.844-3.058-1.345
			c-0.402-0.39-0.931-0.604-1.493-0.604c-0.466,0-0.911,0.147-1.287,0.429c-0.828,0.621-2.465,1.52-3.26,1.52
			c-0.79,0-2.429-0.899-3.261-1.521c-0.375-0.28-0.82-0.429-1.287-0.429c-0.577,0-1.118,0.226-1.519,0.631l-5.838,5.841
			c-0.446,0.439-0.677,1.052-0.631,1.672c0.042,0.613,0.346,1.182,0.84,1.562c0.071,0.057,1.752,1.406,1.752,4.139
			c0,1.314-0.405,2.404-0.917,3.781c-0.75,2.011-1.682,4.514-1.682,8.564c0,6.678,4.994,12.31,11.661,13.105l0.177,0.016
			c1.559,0.125,2.715,0.718,3.535,1.811C28.684,50.669,29.326,50.991,29.999,50.991 M30,0C13.432,0,0,13.432,0,30
			c0,16.569,13.432,30,30,30s30-13.431,30-30C60,13.432,46.568,0,30,0L30,0z M29.999,49.493c-0.205,0-0.397-0.097-0.52-0.26
			c-1.078-1.438-2.632-2.247-4.613-2.406l-0.165-0.015c-5.869-0.701-10.296-5.694-10.296-11.613c0-3.779,0.843-6.042,1.588-8.041
			c0.542-1.459,1.011-2.721,1.011-4.305c0-3.504-2.246-5.257-2.341-5.328c-0.149-0.115-0.242-0.289-0.255-0.475
			c-0.014-0.188,0.056-0.372,0.188-0.503l5.846-5.849c0.126-0.127,0.292-0.191,0.46-0.191c0.137,0,0.274,0.043,0.391,0.13
			c0.676,0.506,2.74,1.82,4.157,1.82c1.422,0,3.485-1.314,4.159-1.82c0.116-0.087,0.252-0.129,0.388-0.129
			c0.167,0,0.334,0.064,0.46,0.19c0.019,0.015,1.804,1.759,4.091,1.759c2.303,0,4.072-1.741,4.088-1.759
			c0.127-0.127,0.293-0.191,0.459-0.191s0.333,0.064,0.461,0.191l5.848,5.849c0.133,0.132,0.201,0.315,0.189,0.504
			c-0.016,0.188-0.109,0.36-0.258,0.474c-0.094,0.071-2.342,1.824-2.342,5.328c0,1.584,0.471,2.846,1.014,4.305
			c0.742,1.999,1.588,4.262,1.588,8.041c0,5.932-4.438,10.926-10.32,11.615l-0.16,0.013c-1.971,0.158-3.518,0.967-4.596,2.406
			C30.396,49.396,30.204,49.493,29.999,49.493L29.999,49.493z"/>
	</g>
</g>
</svg>
