<?xml version="1.0" encoding="utf-8"?>
<!-- Generator: Adobe Illustrator 16.0.3, SVG Export Plug-In . SVG Version: 6.00 Build 0)  -->
<!DOCTYPE svg PUBLIC "-//W3C//DTD SVG 1.1//EN" "http://www.w3.org/Graphics/SVG/1.1/DTD/svg11.dtd">
<svg version="1.1" id="Layer_1" xmlns="http://www.w3.org/2000/svg" xmlns:xlink="http://www.w3.org/1999/xlink" x="0px" y="0px"
	 width="60px" height="60px" viewBox="0 0 60 60" enable-background="new 0 0 60 60" xml:space="preserve">
<g>
	<g>
		<path fill="#E86624" d="M30,1.5c15.715,0,28.5,12.785,28.5,28.5S45.715,58.5,30,58.5S1.5,45.715,1.5,30S14.285,1.5,30,1.5 M30,0
			C13.432,0,0,13.432,0,30c0,16.569,13.432,30,30,30s30-13.431,30-30C60,13.432,46.568,0,30,0L30,0z"/>
	</g>
</g>
<g>
	<path fill="#E86624" d="M32.075,25.933c-0.2,0-0.385,0.117-0.47,0.3c-0.059,0.126-0.064,0.267-0.017,0.396
		c0.047,0.131,0.143,0.234,0.269,0.293l1.011,0.473c0.066,0.032,0.14,0.049,0.218,0.049c0.203,0,0.383-0.114,0.47-0.3
		c0.059-0.125,0.065-0.266,0.019-0.396c-0.046-0.13-0.141-0.234-0.267-0.293l-1.013-0.474
		C32.225,25.949,32.151,25.933,32.075,25.933L32.075,25.933z"/>
</g>
<path fill="#E86624" d="M47.546,42.77"/>
<path fill="#E86624" d="M46.421,33.73c-1.238-1.238-4.725-3.235-10.658-6.105c-0.071-0.035-0.147-0.053-0.226-0.053
	c-0.201,0-0.381,0.113-0.469,0.294c-0.06,0.124-0.068,0.265-0.022,0.396c0.046,0.131,0.14,0.236,0.264,0.297
	c5.665,2.739,9.254,4.781,10.379,5.905c1.498,1.498,2.323,3.491,2.323,5.611c0,0.927-0.157,1.833-0.466,2.693l-0.275,0.766
	l-0.202-0.788c-0.057-0.223-0.121-0.449-0.203-0.684c-0.599-1.754-1.839-3.63-3.493-5.284c-2.446-2.447-12.541-9.438-18.341-13.386
	l-0.249-0.17l0.863-0.865c0.099-0.099,0.152-0.229,0.152-0.368s-0.054-0.269-0.152-0.366L15.123,11.102
	c-0.097-0.098-0.227-0.151-0.365-0.151c-0.14,0-0.27,0.054-0.368,0.152l-3.287,3.288c-0.098,0.098-0.151,0.228-0.151,0.366
	c0,0.14,0.054,0.271,0.151,0.368l10.524,10.522c0.096,0.097,0.226,0.15,0.365,0.15c0.139,0,0.269-0.054,0.366-0.151l0.422-0.422
	l0.147,0.334c2.97,6.726,8.32,18.38,10.802,20.863c1.696,1.694,3.95,2.628,6.347,2.628s4.65-0.934,6.345-2.628
	s2.628-3.948,2.628-6.346C49.049,37.68,48.115,35.426,46.421,33.73z M22.444,24.621l-0.372,0.058l-9.923-9.921l2.607-2.608
	l9.905,9.906l-0.431,0.726L22.444,24.621z M42.771,47.544c-0.863,0.311-1.77,0.469-2.694,0.469c-2.118,0-4.111-0.826-5.612-2.325
	c-1.486-1.487-4.568-7.272-8.678-16.29l0.434-0.246c3.747,5.417,8.621,12.281,10.561,14.221c1.651,1.651,3.527,2.893,5.283,3.494
	c0.232,0.079,0.46,0.146,0.682,0.199l0.807,0.196L42.771,47.544z M46.133,44.865l-0.108,0.425l-14.35-14.351
	c-0.098-0.098-0.229-0.151-0.367-0.151s-0.27,0.054-0.367,0.151c-0.099,0.099-0.152,0.229-0.152,0.368s0.054,0.269,0.152,0.366
	l14.35,14.351l-0.426,0.108c-0.215,0.055-0.453,0.083-0.711,0.083c-0.52,0-1.11-0.111-1.754-0.332
	c-1.609-0.551-3.346-1.703-4.887-3.245C35.17,40.296,28.4,30.533,24.575,24.923l0.347-0.348c5.604,3.82,15.358,10.581,17.716,12.938
	c1.54,1.54,2.693,3.275,3.247,4.887C46.214,43.361,46.3,44.213,46.133,44.865z"/>
</svg>
