<?xml version="1.0" encoding="utf-8"?>
<!-- Generator: Adobe Illustrator 16.0.3, SVG Export Plug-In . SVG Version: 6.00 Build 0)  -->
<!DOCTYPE svg PUBLIC "-//W3C//DTD SVG 1.1//EN" "http://www.w3.org/Graphics/SVG/1.1/DTD/svg11.dtd">
<svg version="1.1" id="Layer_1" xmlns="http://www.w3.org/2000/svg" xmlns:xlink="http://www.w3.org/1999/xlink" x="0px" y="0px"
	 width="60px" height="60px" viewBox="0 0 60 60" enable-background="new 0 0 60 60" xml:space="preserve">
<g>
	<g>
		<path fill="#E86624" d="M30,1.5c15.715,0,28.5,12.785,28.5,28.5S45.715,58.5,30,58.5S1.5,45.715,1.5,30S14.285,1.5,30,1.5 M30,0
			C13.432,0,0,13.432,0,30c0,16.569,13.432,30,30,30s30-13.431,30-30C60,13.432,46.568,0,30,0L30,0z"/>
	</g>
</g>
<g>
	<path fill="none" stroke="#E86624" stroke-width="1.5" stroke-miterlimit="10" d="M24.903,37.984l13.081-13.082
		c1.981,0.84,4.355,0.455,5.973-1.16c1.613-1.613,1.998-3.891,1.159-5.871l-2.603,2.705h-2.887v-3.088l2.605-2.605
		c-1.983-0.84-4.36-0.453-5.975,1.162s-2,3.989-1.162,5.972L22.017,35.098c-1.981-0.84-4.357-0.453-5.972,1.162
		c-1.615,1.616-2,3.989-1.162,5.973l2.605-2.605h3.088v2.887l-2.705,2.604c1.982,0.837,4.307,0.452,5.921-1.161
		C25.408,42.344,25.741,39.965,24.903,37.984z"/>
	<path fill="none" stroke="#E86624" stroke-width="1.5" stroke-miterlimit="10" d="M30,27.111l-5.097-5.095
		c0.838-1.982,0.454-4.356-1.162-5.972c-1.614-1.615-3.888-2.002-5.87-1.162l2.705,2.605v3.088h-3.088l-2.605-2.705
		c-0.838,1.98-0.453,4.306,1.162,5.921c1.614,1.616,3.99,1.976,5.972,1.138l5.097,5.082"/>
	<path fill="none" stroke="#E86624" stroke-width="1.5" stroke-miterlimit="10" d="M30,32.885l5.098,5.1
		c-0.838,1.982-0.454,4.359,1.162,5.973c1.614,1.615,3.99,1.998,5.973,1.161l-2.605-2.604v-2.887h2.887l2.604,2.605
		c0.839-1.983,0.453-4.356-1.16-5.973c-1.615-1.615-3.991-2.002-5.973-1.162l-5.096-5.097"/>
</g>
</svg>
