<?xml version="1.0" encoding="utf-8"?>
<!-- Generator: Adobe Illustrator 16.0.3, SVG Export Plug-In . SVG Version: 6.00 Build 0)  -->
<!DOCTYPE svg PUBLIC "-//W3C//DTD SVG 1.1//EN" "http://www.w3.org/Graphics/SVG/1.1/DTD/svg11.dtd">
<svg version="1.1" id="Layer_1" xmlns="http://www.w3.org/2000/svg" xmlns:xlink="http://www.w3.org/1999/xlink" x="0px" y="0px"
	 width="60px" height="60px" viewBox="0 0 60 60" enable-background="new 0 0 60 60" xml:space="preserve">
<g>
	<g>
		<path fill="#E86624" d="M30,1.5c15.715,0,28.5,12.785,28.5,28.5S45.715,58.5,30,58.5S1.5,45.715,1.5,30S14.285,1.5,30,1.5 M30,0
			C13.432,0,0,13.432,0,30c0,16.569,13.432,30,30,30s30-13.431,30-30C60,13.432,46.568,0,30,0L30,0z"/>
	</g>
</g>
<g>
	<path fill="#E86624" d="M19.994,39.379c-0.346,0-0.625-0.279-0.625-0.625c0-0.345,0.279-0.624,0.625-0.624
		c0.345,0,0.625,0.279,0.625,0.624C20.619,39.1,20.339,39.379,19.994,39.379L19.994,39.379L19.994,39.379z M19.994,36.878
		c-1.036,0-1.877,0.841-1.877,1.876c0,1.037,0.841,1.877,1.877,1.877c1.035,0,1.877-0.84,1.877-1.877
		C21.869,37.719,21.029,36.88,19.994,36.878L19.994,36.878L19.994,36.878z"/>
	<g>
		<path fill="#E86624" d="M40.005,39.379c-0.345,0-0.624-0.279-0.624-0.625c0-0.345,0.279-0.624,0.624-0.624
			c0.346,0,0.626,0.279,0.626,0.624C40.631,39.1,40.351,39.379,40.005,39.379L40.005,39.379z M40.005,36.878
			c-1.036,0-1.876,0.841-1.876,1.876c0,1.037,0.84,1.877,1.876,1.877c1.037,0,1.878-0.84,1.878-1.877
			C41.881,37.719,41.041,36.88,40.005,36.878L40.005,36.878L40.005,36.878z"/>
		<path fill="#E86624" d="M47.509,37.504c0,0.346-0.278,0.626-0.624,0.626h-2.551c-0.313-2.152-2.154-3.749-4.329-3.753H36.88
			V23.746h2.501v6.253c0,1.036,0.84,1.875,1.875,1.876h6.253V37.504L47.509,37.504z M40.005,41.881
			c-1.726,0-3.125-1.399-3.125-3.127c0-1.727,1.399-3.125,3.125-3.125c1.728,0,3.128,1.398,3.128,3.125
			C43.131,40.48,41.731,41.879,40.005,41.881L40.005,41.881L40.005,41.881z M27.498,38.13v-2.501h4.377v2.501H27.498L27.498,38.13z
			 M19.994,41.881c-1.727,0-3.127-1.399-3.127-3.127c0-1.727,1.4-3.125,3.127-3.125s3.126,1.398,3.126,3.125
			C23.119,40.48,21.721,41.879,19.994,41.881L19.994,41.881L19.994,41.881z M13.74,37.504v-1.875h3.196
			c-0.687,0.67-1.134,1.549-1.271,2.501h-1.301C14.021,38.13,13.74,37.85,13.74,37.504L13.74,37.504z M23.051,35.629h3.196v2.501
			h-1.926C24.185,37.178,23.739,36.299,23.051,35.629L23.051,35.629L23.051,35.629z M12.489,18.744
			c0.001-0.346,0.28-0.627,0.626-0.627h21.887c0.346,0,0.625,0.281,0.625,0.627v15.633H12.489V18.744L12.489,18.744z M35.679,38.13
			h-2.553v-2.501h3.821C36.261,36.299,35.814,37.178,35.679,38.13L35.679,38.13z M43.04,23.955l4.31,4.852
			c0.103,0.115,0.159,0.264,0.159,0.418v1.399h-6.253c-0.345,0-0.624-0.28-0.625-0.625v-6.253h1.938
			C42.75,23.744,42.921,23.82,43.04,23.955L43.04,23.955z M43.977,23.125c-0.357-0.4-0.869-0.631-1.407-0.631H36.88v-3.75
			c-0.002-1.037-0.841-1.877-1.878-1.877H13.115c-1.035,0-1.875,0.84-1.875,1.877v16.258c0,0.166,0.064,0.324,0.182,0.443
			c0.118,0.117,0.276,0.184,0.442,0.184h0.625v1.875c0.002,1.035,0.841,1.875,1.876,1.875h1.301c0.31,2.154,2.152,3.754,4.328,3.754
			c2.175,0,4.02-1.6,4.327-3.754h11.357c0.308,2.154,2.152,3.754,4.326,3.754c2.177,0,4.02-1.6,4.329-3.754h2.551
			c1.035,0,1.874-0.84,1.875-1.875v-8.279c0-0.461-0.169-0.905-0.476-1.248L43.977,23.125L43.977,23.125z"/>
	</g>
</g>
</svg>
