<?xml version="1.0" encoding="utf-8"?>
<!-- Generator: Adobe Illustrator 16.0.3, SVG Export Plug-In . SVG Version: 6.00 Build 0)  -->
<!DOCTYPE svg PUBLIC "-//W3C//DTD SVG 1.1//EN" "http://www.w3.org/Graphics/SVG/1.1/DTD/svg11.dtd">
<svg version="1.1" id="Layer_1" xmlns="http://www.w3.org/2000/svg" xmlns:xlink="http://www.w3.org/1999/xlink" x="0px" y="0px"
	 width="40px" height="40px" viewBox="0 0 40 40" enable-background="new 0 0 40 40" xml:space="preserve">
<g>
	<g>
		<path fill="#464546" d="M39.853,22.286l-0.711-10.382c-0.047-0.673-0.353-1.286-0.861-1.729c-0.509-0.441-1.16-0.658-1.832-0.609
			c-1.321,0.097-2.346,1.21-2.333,2.535l0.084,8.463l-3.666,4.695c-0.585,0.749-1.557,1.051-2.438,0.824l3.989-5.18
			c0.7-0.909,0.584-2.227-0.265-2.999c-0.453-0.412-1.039-0.616-1.65-0.573s-1.163,0.326-1.555,0.798l-6.026,7.257
			c-0.993,1.196-1.532,2.712-1.518,4.268l0.094,9.638c0.004,0.384,0.316,0.693,0.7,0.694L31.899,40H31.9
			c0.196,0,0.384-0.083,0.516-0.228c0.134-0.145,0.199-0.338,0.183-0.534l-0.41-4.718l6.661-8.853
			C39.58,24.698,39.937,23.497,39.853,22.286L39.853,22.286z M37.729,24.826l-6.822,9.066c-0.104,0.139-0.153,0.31-0.138,0.482
			l0.366,4.222l-8.575-0.012l-0.087-8.944c-0.012-1.224,0.412-2.416,1.194-3.358l6.026-7.257c0.145-0.174,0.348-0.279,0.573-0.294
			c0.226-0.017,0.441,0.059,0.609,0.211c0.313,0.285,0.355,0.771,0.098,1.106l-4.526,5.879c-0.119,0.153-0.168,0.351-0.137,0.542
			c0.032,0.192,0.143,0.362,0.304,0.47c1.62,1.074,3.826,0.716,5.023-0.817l3.816-4.889c0.098-0.125,0.15-0.278,0.148-0.438
			l-0.086-8.709c-0.006-0.586,0.447-1.079,1.033-1.122c0.299-0.021,0.585,0.075,0.811,0.27c0.226,0.196,0.36,0.468,0.381,0.766
			l0.712,10.382C38.514,23.257,38.257,24.125,37.729,24.826L37.729,24.826z M37.729,24.826"/>
		<path fill="#464546" d="M39.853,22.286l-0.711-10.382c-0.047-0.673-0.353-1.286-0.861-1.729c-0.509-0.441-1.16-0.658-1.832-0.609
			c-1.321,0.097-2.346,1.21-2.333,2.535l0.084,8.463l-3.666,4.695c-0.585,0.749-1.557,1.051-2.438,0.824l3.989-5.18
			c0.7-0.909,0.584-2.227-0.265-2.999c-0.453-0.412-1.039-0.616-1.65-0.573s-1.163,0.326-1.555,0.798l-6.026,7.257
			c-0.993,1.196-1.532,2.712-1.518,4.268l0.094,9.638c0.004,0.384,0.316,0.693,0.7,0.694L31.899,40H31.9
			c0.196,0,0.384-0.083,0.516-0.228c0.134-0.145,0.199-0.338,0.183-0.534l-0.41-4.718l6.661-8.853
			C39.58,24.698,39.937,23.497,39.853,22.286L39.853,22.286z M37.729,24.826l-6.822,9.066c-0.104,0.139-0.153,0.31-0.138,0.482
			l0.366,4.222l-8.575-0.012l-0.087-8.944c-0.012-1.224,0.412-2.416,1.194-3.358l6.026-7.257c0.145-0.174,0.348-0.279,0.573-0.294
			c0.226-0.017,0.441,0.059,0.609,0.211c0.313,0.285,0.355,0.771,0.098,1.106l-4.526,5.879c-0.119,0.153-0.168,0.351-0.137,0.542
			c0.032,0.192,0.143,0.362,0.304,0.47c1.62,1.074,3.826,0.716,5.023-0.817l3.816-4.889c0.098-0.125,0.15-0.278,0.148-0.438
			l-0.086-8.709c-0.006-0.586,0.447-1.079,1.033-1.122c0.299-0.021,0.585,0.075,0.811,0.27c0.226,0.196,0.36,0.468,0.381,0.766
			l0.712,10.382C38.514,23.257,38.257,24.125,37.729,24.826L37.729,24.826z M37.729,24.826"/>
		<path fill="#464546" d="M11.385,18.13c-0.391-0.472-0.943-0.755-1.555-0.798c-0.61-0.042-1.197,0.161-1.649,0.573
			c-0.85,0.772-0.966,2.09-0.266,2.999l3.989,5.18c-0.88,0.227-1.852-0.075-2.437-0.824l-3.667-4.695l0.084-8.463
			c0.014-1.325-1.011-2.438-2.332-2.535c-0.672-0.048-1.323,0.168-1.832,0.609c-0.51,0.442-0.815,1.056-0.861,1.729L0.147,22.286
			c-0.083,1.211,0.273,2.412,1.003,3.383l6.661,8.852l-0.409,4.718c-0.018,0.196,0.049,0.39,0.182,0.535
			C7.717,39.917,7.904,40,8.101,40h0.001l10.033-0.014c0.384,0,0.696-0.311,0.7-0.694l0.094-9.638
			c0.015-1.555-0.524-3.071-1.518-4.268L11.385,18.13z M17.44,38.585l-8.575,0.012l0.366-4.222c0.015-0.173-0.034-0.344-0.138-0.482
			l-6.823-9.066c-0.527-0.701-0.784-1.569-0.725-2.444L2.258,12c0.021-0.298,0.156-0.569,0.382-0.766
			c0.204-0.177,0.46-0.272,0.728-0.272c0.027,0,0.056,0.001,0.083,0.003c0.585,0.043,1.039,0.535,1.032,1.122l-0.086,8.709
			c-0.002,0.159,0.051,0.313,0.148,0.438l3.817,4.889c1.196,1.533,3.402,1.892,5.022,0.817c0.162-0.107,0.271-0.277,0.304-0.47
			c0.032-0.191-0.018-0.389-0.136-0.542l-4.526-5.879c-0.259-0.335-0.216-0.821,0.098-1.106c0.167-0.152,0.383-0.227,0.608-0.211
			c0.226,0.015,0.43,0.12,0.574,0.294l6.026,7.257c0.781,0.942,1.206,2.135,1.193,3.359L17.44,38.585z M17.44,38.585"/>
		<path fill="#464546" d="M11.385,18.13c-0.391-0.472-0.943-0.755-1.555-0.798c-0.61-0.042-1.197,0.161-1.649,0.573
			c-0.85,0.772-0.966,2.09-0.266,2.999l3.989,5.18c-0.88,0.227-1.852-0.075-2.437-0.824l-3.667-4.695l0.084-8.463
			c0.014-1.325-1.011-2.438-2.332-2.535c-0.672-0.048-1.323,0.168-1.832,0.609c-0.51,0.442-0.815,1.056-0.861,1.729L0.147,22.286
			c-0.083,1.211,0.273,2.412,1.003,3.383l6.661,8.852l-0.409,4.718c-0.018,0.196,0.049,0.39,0.182,0.535
			C7.717,39.917,7.904,40,8.101,40h0.001l10.033-0.014c0.384,0,0.696-0.311,0.7-0.694l0.094-9.638
			c0.015-1.555-0.524-3.071-1.518-4.268L11.385,18.13z M17.44,38.585l-8.575,0.012l0.366-4.222c0.015-0.173-0.034-0.344-0.138-0.482
			l-6.823-9.066c-0.527-0.701-0.784-1.569-0.725-2.444L2.258,12c0.021-0.298,0.156-0.569,0.382-0.766
			c0.204-0.177,0.46-0.272,0.728-0.272c0.027,0,0.056,0.001,0.083,0.003c0.585,0.043,1.039,0.535,1.032,1.122l-0.086,8.709
			c-0.002,0.159,0.051,0.313,0.148,0.438l3.817,4.889c1.196,1.533,3.402,1.892,5.022,0.817c0.162-0.107,0.271-0.277,0.304-0.47
			c0.032-0.191-0.018-0.389-0.136-0.542l-4.526-5.879c-0.259-0.335-0.216-0.821,0.098-1.106c0.167-0.152,0.383-0.227,0.608-0.211
			c0.226,0.015,0.43,0.12,0.574,0.294l6.026,7.257c0.781,0.942,1.206,2.135,1.193,3.359L17.44,38.585z M17.44,38.585"/>
	</g>
	<path fill="#464546" d="M33.732,7.888c0-2.106-0.82-4.088-2.311-5.577C29.932,0.82,27.951,0,25.845,0
		c-2.107,0-4.088,0.82-5.578,2.311L20,2.577l-0.267-0.267C18.244,0.82,16.263,0,14.156,0s-4.088,0.82-5.577,2.311
		c-3.076,3.075-3.076,8.079,0,11.154l10.926,10.926c0.137,0.138,0.316,0.206,0.495,0.206c0.18,0,0.359-0.068,0.496-0.206
		l10.926-10.926C32.912,11.976,33.732,9.994,33.732,7.888L33.732,7.888z M20,22.904L9.57,12.474c-2.529-2.528-2.529-6.644,0-9.172
		c1.225-1.226,2.854-1.899,4.586-1.899s3.36,0.674,4.586,1.899l0.763,0.763C19.636,4.195,19.814,4.27,20,4.27
		s0.364-0.074,0.496-0.205l0.762-0.763c1.226-1.226,2.854-1.899,4.587-1.899s3.361,0.674,4.586,1.899
		c1.225,1.225,1.899,2.854,1.899,4.586s-0.675,3.361-1.899,4.586L20,22.904z M20,22.904"/>
	<path fill="#464546" d="M33.732,7.888c0-2.106-0.82-4.088-2.311-5.577C29.932,0.82,27.951,0,25.845,0
		c-2.107,0-4.088,0.82-5.578,2.311L20,2.577l-0.267-0.267C18.244,0.82,16.263,0,14.156,0s-4.088,0.82-5.577,2.311
		c-3.076,3.075-3.076,8.079,0,11.154l10.926,10.926c0.137,0.138,0.316,0.206,0.495,0.206c0.18,0,0.359-0.068,0.496-0.206
		l10.926-10.926C32.912,11.976,33.732,9.994,33.732,7.888L33.732,7.888z M20,22.904L9.57,12.474c-2.529-2.528-2.529-6.644,0-9.172
		c1.225-1.226,2.854-1.899,4.586-1.899s3.36,0.674,4.586,1.899l0.763,0.763C19.636,4.195,19.814,4.27,20,4.27
		s0.364-0.074,0.496-0.205l0.762-0.763c1.226-1.226,2.854-1.899,4.587-1.899s3.361,0.674,4.586,1.899
		c1.225,1.225,1.899,2.854,1.899,4.586s-0.675,3.361-1.899,4.586L20,22.904z M20,22.904"/>
</g>
</svg>
