<?xml version="1.0" encoding="utf-8"?>
<!-- Generator: Adobe Illustrator 16.0.3, SVG Export Plug-In . SVG Version: 6.00 Build 0)  -->
<!DOCTYPE svg PUBLIC "-//W3C//DTD SVG 1.1//EN" "http://www.w3.org/Graphics/SVG/1.1/DTD/svg11.dtd">
<svg version="1.1" id="Layer_1" xmlns="http://www.w3.org/2000/svg" xmlns:xlink="http://www.w3.org/1999/xlink" x="0px" y="0px"
	 width="40px" height="40px" viewBox="0 0 40 40" enable-background="new 0 0 40 40" xml:space="preserve">
<path fill="#003768" opacity="1" d="M20.001,0c-11.045,0-20,8.956-20,20.001c0,11.046,8.955,19.999,20,19.999s20-8.953,20-19.999
	C40.001,8.956,31.046,0,20.001,0z M14.526,30.399l-0.855-1.021l11.194-9.377l-11.194-9.378l0.855-1.021l12.415,10.399L14.526,30.399
	z"/>
</svg>
