<?xml version="1.0" encoding="utf-8"?>
<!-- Generator: Adobe Illustrator 16.0.3, SVG Export Plug-In . SVG Version: 6.00 Build 0)  -->
<!DOCTYPE svg PUBLIC "-//W3C//DTD SVG 1.1//EN" "http://www.w3.org/Graphics/SVG/1.1/DTD/svg11.dtd">
<svg version="1.1" id="Layer_1" xmlns="http://www.w3.org/2000/svg" xmlns:xlink="http://www.w3.org/1999/xlink" x="0px" y="0px"
	 width="40px" height="40px" viewBox="0 0 40 40" enable-background="new 0 0 40 40" xml:space="preserve">
<g>
	<g>
		<path fill="#FFFFFF" d="M20,1c10.477,0,19,8.523,19,19s-8.523,19-19,19S1,30.477,1,20S9.523,1,20,1 M20,0C8.954,0,0,8.954,0,20
			s8.954,20,20,20s20-8.954,20-20S31.046,0,20,0L20,0z"/>
	</g>
</g>
<g>
	<path fill="#FFFFFF" d="M30.936,31.527l-0.002-0.017c-0.008,0.006-0.015,0.012-0.022,0.017H30.936z"/>
	<polygon fill="#FFFFFF" points="9.393,31.754 9.393,31.754 9.393,31.754 	"/>
	<path fill="#FFFFFF" d="M30.148,26.11c-0.004-0.904-0.639-0.926-1.396-1.229l-3.535-1.416c-0.061-0.023-0.121-0.05-0.183-0.077
		c-0.628-0.284-1.185-0.681-1.387-0.959l-0.009-0.011v-0.003c-0.014-0.019-0.025-0.036-0.036-0.055l-0.008-0.015l-0.001-0.005
		l-0.008-0.007v-0.002c-0.095-0.141-0.189-0.203-0.271-0.176l-0.005,0.002h-0.002v0.001h-0.007l-0.001,0.001l-0.005,0.004
		c-0.097,0.051-0.077-0.005-0.115-0.108c-0.096-0.259-0.253-0.751-0.278-0.823c-0.037-0.134-0.135,0.212-0.111-0.161l0.039-0.682
		c0.065-0.069,0.117-0.127,0.153-0.165c0.23-0.264,0.247-0.959,0.362-1.129s0.348-0.206,0.578-0.997
		c0.23-0.79,0.512-1.92,0.216-1.938c-0.073-0.005-0.157,0.043-0.243,0.118c0.052-0.29,0.164-0.949,0.188-1.435
		c0.033-0.643-0.073-2.283-0.438-2.883c-0.228-0.377-0.687-0.748-1.144-1.039c-0.274-0.175-0.549-0.319-0.771-0.416
		c-0.667-0.297-2.768-0.161-3.479,0c-0.811,0.179-1.379,0.688-1.741,1.289c-0.364,0.604-0.525,2.406-0.493,3.049
		c0.015,0.287,0.188,0.773,0.229,1.067c0.026,0.155,0.049,0.156,0.068,0.266c-0.029-0.011-0.061-0.019-0.088-0.015
		c-0.295,0.017-0.015,1.146,0.215,1.937c0.23,0.791,0.462,0.827,0.578,0.997c0.115,0.17,0.132,0.865,0.365,1.129
		c0.035,0.041,0.092,0.104,0.158,0.178l0.045,0.552l0.078,0.308c-0.035-0.088-0.105-0.146-0.139-0.029
		c-0.1,0.303-0.197,0.604-0.299,0.906c-0.011-0.014-0.025-0.023-0.046-0.025c-0.095-0.084-0.225-0.011-0.343,0.186
		c-0.176,0.291-0.752,0.709-1.424,1.014l-0.02,0.07l-0.002,0.016c-0.053,0.023-0.105,0.047-0.16,0.066L11.7,24.882
		c-0.759,0.303-1.393,0.324-1.396,1.229l-0.912,5.644c3.031,2.047,6.683,3.244,10.607,3.244c4.061,0,7.819-1.292,10.911-3.471
		c0.008-0.005,0.015-0.011,0.022-0.017L30.148,26.11z"/>
</g>
</svg>
