<?xml version="1.0" encoding="utf-8"?>
<!-- Generator: Adobe Illustrator 16.0.3, SVG Export Plug-In . SVG Version: 6.00 Build 0)  -->
<!DOCTYPE svg PUBLIC "-//W3C//DTD SVG 1.1//EN" "http://www.w3.org/Graphics/SVG/1.1/DTD/svg11.dtd">
<svg version="1.1" id="Layer_1" xmlns="http://www.w3.org/2000/svg" xmlns:xlink="http://www.w3.org/1999/xlink" x="0px" y="0px"
	 width="60px" height="60px" viewBox="0 0 60 60" enable-background="new 0 0 60 60" xml:space="preserve">
<g>
	<g>
		<path fill="#E86624" d="M106.5,2.223c15.715,0,28.5,12.785,28.5,28.5c0,15.714-12.785,28.5-28.5,28.5S78,46.438,78,30.723
			C78,15.008,90.785,2.223,106.5,2.223 M106.5,0.723c-16.568,0-30,13.432-30,30c0,16.569,13.432,30,30,30s30-13.431,30-30
			C136.5,14.155,123.068,0.723,106.5,0.723L106.5,0.723z"/>
	</g>
</g>
<g>
	<polygon fill="none" stroke="#E86624" stroke-width="1.5" stroke-miterlimit="10" points="32.739,100.57 29.999,95.02 
		27.26,100.57 21.133,101.461 25.565,105.782 24.52,111.883 29.999,109.005 35.479,111.883 34.435,105.782 38.866,101.461 	"/>
	<path fill="none" stroke="#E86624" stroke-width="1.5" stroke-miterlimit="10" d="M30,75.75c-16.568,0-30,13.432-30,30
		c0,16.569,13.432,30,30,30s30-13.431,30-30C60,89.182,46.568,75.75,30,75.75z M35.274,122.564l-0.16,0.013
		c-1.971,0.158-3.518,0.967-4.596,2.406c-0.122,0.163-0.314,0.26-0.52,0.26s-0.397-0.097-0.52-0.26
		c-1.078-1.438-2.632-2.247-4.613-2.406l-0.165-0.015c-5.869-0.701-10.296-5.694-10.296-11.613c0-3.779,0.843-6.042,1.588-8.041
		c0.542-1.459,1.011-2.721,1.011-4.305c0-3.504-2.246-5.257-2.341-5.328c-0.149-0.115-0.242-0.289-0.255-0.475
		c-0.014-0.188,0.056-0.372,0.188-0.503l5.846-5.849c0.229-0.231,0.592-0.255,0.851-0.062c0.676,0.506,2.74,1.82,4.157,1.82
		c1.422,0,3.485-1.314,4.159-1.82c0.259-0.193,0.62-0.166,0.848,0.062c0.019,0.015,1.804,1.759,4.091,1.759
		c2.303,0,4.072-1.741,4.088-1.759c0.254-0.255,0.664-0.255,0.92,0l5.848,5.849c0.133,0.132,0.201,0.315,0.189,0.504
		c-0.016,0.188-0.109,0.36-0.258,0.474c-0.094,0.071-2.342,1.824-2.342,5.328c0,1.584,0.471,2.846,1.014,4.305
		c0.742,1.999,1.588,4.262,1.588,8.041C45.595,116.881,41.157,121.875,35.274,122.564z"/>
</g>
<g>
	<g>
		<path fill="#E86624" d="M106.5,77.25c15.715,0,28.5,12.785,28.5,28.5s-12.785,28.5-28.5,28.5S78,121.465,78,105.75
			S90.785,77.25,106.5,77.25 M106.5,75.75c-16.568,0-30,13.432-30,30c0,16.569,13.432,30,30,30s30-13.431,30-30
			C136.5,89.182,123.068,75.75,106.5,75.75L106.5,75.75z"/>
	</g>
</g>
<g>
	<circle fill="#216585" cx="332.172" cy="1871.244" r="5.33"/>
	<path fill="#216585" d="M323.223,1870.248h-24.412c-0.256,0-0.391,0.999-0.391,1.619c0,5.76,11.456,10.64,26.498,11.573
		L323.223,1870.248z"/>
	<path fill="#216585" d="M365.531,1870.248h-24.412l-1.693,13.091c15.041-0.934,26.498-5.61,26.498-11.37
		C365.924,1871.35,365.787,1870.248,365.531,1870.248z"/>
	<path fill="#216585" d="M345.331,1887.723c-0.776-1.226-2.466-2.079-4.438-2.079c-2.706,0-4.9,1.602-4.9,3.575
		c0,1.977,2.194,3.577,4.9,3.577c1.338,0,2.547-0.393,3.432-1.027c4.42,3.304-1.691,5.361-5.709,4.179
		c-1.154-0.44-2.739-0.709-4.411-0.793l0.772-16.095h-5.609l0.773,16.129c-1.48,0.131-2.864,0.425-3.9,0.82
		c-4.018,1.181-10.127-0.907-5.709-4.21c0.885,0.635,2.095,1.012,3.432,1.012c2.707,0,4.902-1.608,4.902-3.584
		c0-1.974-2.195-3.579-4.902-3.579c-1.973,0-3.661,0.853-4.438,2.077c-2.845,2.073-5.627,5.612-3.979,8.684
		c2.418,4.507,7.225,4.5,10.432,3.606c-1.146,3.66,1.106,7.03,3.393,9.147c-2.467,2.255-4.752,5.891-2.786,9.928
		c0.761,1.56,1.86,2.561,3.105,3.178c-1.947,0.173-3.565-0.22-3.565-0.22c0.52,0.22,1.137,0.434,1.816,0.607
		c1.069,0.277,2.293,0.705,3.533,0.686l0.136,3.085h1.122l0.137-3.106c1.414,0.09,2.83-0.227,4.047-0.542
		c0.679-0.175,1.299-0.448,1.816-0.668c0,0-1.619,0.361-3.566,0.188c1.246-0.617,2.345-1.634,3.105-3.193
		c1.965-4.036-0.32-7.68-2.785-9.936c2.285-2.116,4.539-5.49,3.391-9.149c3.208,0.893,8.014,0.896,10.432-3.61
		C350.957,1893.338,348.176,1889.796,345.331,1887.723z M329.791,1900.69c0.155-0.32,0.357-0.578,0.579-0.807l0.243,5.109
		C329.688,1903.77,329.041,1902.232,329.791,1900.69z M333.993,1899.469c0.433,0.291,0.81,0.681,1.071,1.222
		c0.893,1.832-0.185,3.657-1.365,4.956L333.993,1899.469z M330.988,1912.859l0.387,8.12c-0.887-0.62-1.668-1.497-2.192-2.769
		C328.385,1916.281,329.623,1914.307,330.988,1912.859z M335.674,1918.211c-0.629,1.52-1.617,2.485-2.721,3.105l0.427-8.951
		C334.908,1913.833,336.568,1916.051,335.674,1918.211z"/>
</g>
<g>
	<g>
		<path fill="#E86624" d="M184.25,77.25c15.715,0,28.5,12.785,28.5,28.5s-12.785,28.5-28.5,28.5s-28.5-12.785-28.5-28.5
			S168.535,77.25,184.25,77.25 M184.25,75.75c-16.568,0-30,13.432-30,30c0,16.569,13.432,30,30,30s30-13.431,30-30
			C214.25,89.182,200.818,75.75,184.25,75.75L184.25,75.75z"/>
	</g>
</g>
<path fill="none" stroke="#E86624" stroke-width="1.5" stroke-miterlimit="10" d="M263,75.75c-16.568,0-30,13.432-30,30
	c0,16.569,13.432,30,30,30s30-13.431,30-30C293,89.182,279.568,75.75,263,75.75z"/>
<g>
	<path fill="#E86624" d="M336.5,77.25c15.715,0,28.5,12.785,28.5,28.5s-12.785,28.5-28.5,28.5s-28.5-12.785-28.5-28.5
		S320.785,77.25,336.5,77.25 M336.5,75.75c-16.568,0-30,13.432-30,30c0,16.569,13.432,30,30,30s30-13.431,30-30
		C366.5,89.182,353.068,75.75,336.5,75.75L336.5,75.75z"/>
</g>
<g>
	<path fill="#E86624" d="M411.5,77.25c15.715,0,28.5,12.785,28.5,28.5s-12.785,28.5-28.5,28.5s-28.5-12.785-28.5-28.5
		S395.785,77.25,411.5,77.25 M406.807,98.607c-1.897-0.835-4.217-1.398-6.142-1.761c-0.122-0.022-0.245-0.033-0.368-0.033
		c-0.546,0-1.061,0.207-1.442,0.574c-0.517,0.49-0.737,1.198-0.594,1.882c0.474,2.343,1.563,6.556,3.527,8.447
		c0.282,0.271,0.577,0.522,0.881,0.752c-1.697-0.5-3.37-0.854-4.63-1.085c-0.123-0.022-0.246-0.033-0.368-0.033
		c-0.537,0-1.047,0.202-1.452,0.584c-0.503,0.488-0.72,1.187-0.583,1.861c0.579,2.926,1.908,8.18,4.314,10.494
		c1.903,1.833,4.374,2.927,6.61,2.927c0.723,0,1.399-0.109,2.017-0.323c0.06,1.53,1.348,2.758,2.921,2.758
		c1.574,0,2.862-1.228,2.922-2.759c0.618,0.215,1.296,0.324,2.02,0.324c2.237,0,4.708-1.094,6.609-2.926
		c2.407-2.315,3.736-7.569,4.313-10.479c0.143-0.684-0.075-1.385-0.591-1.885c-0.388-0.371-0.9-0.576-1.441-0.576
		c-0.122,0-0.245,0.011-0.376,0.034c-1.256,0.229-2.926,0.583-4.621,1.083c0.304-0.229,0.599-0.48,0.88-0.751
		c1.964-1.891,3.053-6.104,3.524-8.438c0.143-0.68-0.07-1.38-0.594-1.896c-0.391-0.367-0.901-0.57-1.44-0.57
		c-0.122,0-0.244,0.011-0.385,0.036c-1.915,0.361-4.23,0.924-6.128,1.759c0.465-1.035,0.723-2.231,0.723-3.486
		c0-2.549-2.017-5.969-3.704-8.383c-0.381-0.551-1.015-0.884-1.71-0.891c-0.68,0-1.317,0.331-1.704,0.885
		c-1.692,2.422-3.71,5.843-3.71,8.389C406.084,96.376,406.343,97.571,406.807,98.607 M414.422,110.014
		c0.397,0.095,0.818,0.143,1.26,0.143c0.126,0,0.252-0.004,0.379-0.012c-0.614,0.331-1.17,0.692-1.639,1.085V110.014
		 M408.575,110.015v1.214c-0.468-0.393-1.023-0.754-1.637-1.084c0.127,0.008,0.254,0.012,0.38,0.012
		C407.758,110.156,408.179,110.108,408.575,110.015 M411.5,75.75c-16.568,0-30,13.432-30,30c0,16.569,13.432,30,30,30
		s30-13.431,30-30C441.5,89.182,428.068,75.75,411.5,75.75L411.5,75.75z M410.075,103.803v-3.61
		c-1.457-0.794-2.491-2.762-2.491-5.07c0-2.355,2.396-6.037,3.439-7.529c0.106-0.152,0.286-0.244,0.475-0.244
		c0.191,0.002,0.371,0.092,0.477,0.244c1.043,1.492,3.438,5.174,3.438,7.529c0,2.309-1.032,4.277-2.49,5.07v3.614
		c0.346-0.865,0.918-1.733,1.713-2.499c1.73-1.666,6.129-2.639,7.961-2.984c0.035-0.006,0.071-0.01,0.106-0.01
		c0.152,0,0.3,0.058,0.411,0.162c0.133,0.131,0.193,0.314,0.155,0.496c-0.357,1.766-1.368,6-3.097,7.664
		c-1.366,1.314-3.046,2.021-4.49,2.021c-0.893,0-1.695-0.27-2.279-0.831c-0.193-0.187-0.353-0.396-0.48-0.625v8.724
		c0.416-1.147,1.163-2.309,2.219-3.325c2.214-2.131,7.947-3.348,10.082-3.738c0.035-0.006,0.071-0.01,0.106-0.01
		c0.151,0,0.298,0.058,0.405,0.16c0.135,0.131,0.195,0.316,0.158,0.494c-0.406,2.055-1.671,7.576-3.884,9.705
		c-1.693,1.632-3.777,2.507-5.569,2.507c-1.108,0-2.104-0.334-2.829-1.032c-0.293-0.282-0.517-0.61-0.688-0.967v3.064
		c0,0.756-0.637,1.369-1.424,1.369c-0.784,0-1.423-0.613-1.423-1.369v-3.06c-0.171,0.354-0.395,0.682-0.686,0.962
		c-0.725,0.697-1.721,1.032-2.829,1.032c-1.792,0-3.875-0.875-5.569-2.507c-2.213-2.129-3.478-7.65-3.884-9.705
		c-0.036-0.178,0.021-0.363,0.156-0.494c0.109-0.103,0.256-0.16,0.407-0.16c0.035,0,0.071,0.004,0.106,0.01
		c2.134,0.391,7.868,1.607,10.08,3.738c1.055,1.015,1.801,2.174,2.218,3.32v-8.711c-0.127,0.226-0.286,0.433-0.478,0.617
		c-0.584,0.562-1.387,0.831-2.279,0.831c-1.444,0-3.123-0.706-4.49-2.021c-1.729-1.664-2.74-5.898-3.098-7.664
		c-0.038-0.182,0.021-0.367,0.157-0.496c0.108-0.104,0.257-0.162,0.409-0.162c0.035,0,0.07,0.004,0.105,0.01
		c1.834,0.346,6.232,1.318,7.961,2.984C409.157,102.072,409.729,102.938,410.075,103.803L410.075,103.803z"/>
</g>
<g>
	<g>
		<path fill="#E86624" d="M562.25,77.25c15.715,0,28.5,12.785,28.5,28.5s-12.785,28.5-28.5,28.5s-28.5-12.785-28.5-28.5
			S546.535,77.25,562.25,77.25 M562.25,75.75c-16.568,0-30,13.432-30,30c0,16.569,13.432,30,30,30s30-13.431,30-30
			C592.25,89.182,578.818,75.75,562.25,75.75L562.25,75.75z"/>
	</g>
</g>
<g>
	<path fill="#E86624" d="M637.25,77.25c15.715,0,28.5,12.785,28.5,28.5s-12.785,28.5-28.5,28.5s-28.5-12.785-28.5-28.5
		S621.535,77.25,637.25,77.25 M637.25,75.75c-16.568,0-30,13.432-30,30c0,16.569,13.432,30,30,30s30-13.431,30-30
		C667.25,89.182,653.818,75.75,637.25,75.75L637.25,75.75z"/>
</g>
<text transform="matrix(1 0 0 1 -126 34.4482)" font-family="'SourceSansPro-Regular'" font-size="12">Offender Locator</text>
<text transform="matrix(1 0 0 1 -126 110.1768)" font-family="'SourceSansPro-Regular'" font-size="12">Job Opportunities</text>
<text transform="matrix(1 0 0 1 -126 190.2402)" font-family="'SourceSansPro-Regular'" font-size="12">Navigation</text>
<g>
	<g>
		<path fill="#E86624" d="M790.25,77.25c15.715,0,28.5,12.785,28.5,28.5s-12.785,28.5-28.5,28.5s-28.5-12.785-28.5-28.5
			S774.535,77.25,790.25,77.25 M790.25,75.75c-16.568,0-30,13.432-30,30c0,16.569,13.432,30,30,30s30-13.431,30-30
			C820.25,89.182,806.818,75.75,790.25,75.75L790.25,75.75z"/>
	</g>
</g>
<g>
	<path fill="#FFFFFF" d="M30,172.411c-4.672,0-8.457,3.784-8.457,8.458c0,4.672,3.785,8.456,8.457,8.456
		c4.674,0,8.458-3.784,8.458-8.456C38.458,176.195,34.674,172.411,30,172.411z"/>
	<path fill="#FFFFFF" d="M30,156.75c-16.568,0-30,13.432-30,30c0,16.569,13.432,30,30,30s30-13.431,30-30
		C60,170.182,46.568,156.75,30,156.75z M30,206.75c0,0-14.118-15.294-14.118-25.881c0-7.801,6.318-14.119,14.118-14.119
		s14.118,6.318,14.118,14.119C44.118,191.456,30,206.75,30,206.75z"/>
</g>
<path fill="#FFFFFF" d="M110,156.75c-16.568,0-30,13.432-30,30c0,16.569,13.432,30,30,30s30-13.431,30-30
	C140,170.182,126.568,156.75,110,156.75z M119.537,177.648c1.554,0.053,2.979,1.613,2.962,3.244
	c-0.016,1.606-1.424,3.009-2.991,2.979c-1.585-0.03-3.113-1.573-3.089-3.12C116.444,179.176,118.031,177.597,119.537,177.648z
	 M101.725,164.849c2.055-0.016,3.977,1.946,3.989,4.073c0.013,2.13-1.771,3.87-3.938,3.842c-2.125-0.029-3.928-1.835-3.914-3.918
	C97.878,166.72,99.67,164.863,101.725,164.849z M127.786,196.313c-1.026,0.944-1.729,0.39-2.13-0.595
	c-0.606-1.489-1.053-3.044-1.603-4.558c-0.159-0.438-0.44-0.833-0.665-1.249c-0.153,0.054-0.308,0.108-0.461,0.163
	c0.082,0.477,0.125,0.964,0.254,1.428c0.484,1.737,1.006,3.465,1.498,5.199c0.207,0.732,0.172,1.396-0.747,1.593
	c-1.025,0.22-1.24,0.878-1.214,1.834c0.054,2.055,0.011,4.111,0.017,6.168c0.001,0.834-0.062,1.655-1.158,1.661
	c-1.108,0.007-1.339-0.762-1.333-1.698c0.013-1.958,0.019-3.917-0.009-5.874c-0.006-0.463-0.156-0.924-0.24-1.387
	c-0.161,0.004-0.321,0.007-0.481,0.011c-0.092,0.533-0.251,1.065-0.26,1.6c-0.034,2.007,0.046,4.018-0.071,6.019
	c-0.026,0.461-0.669,0.887-1.027,1.33c-0.413-0.392-0.948-0.719-1.202-1.194c-0.206-0.39-0.085-0.956-0.094-1.445
	c-0.036-1.858-0.033-3.719-0.124-5.575c-0.02-0.404-0.299-1.072-0.578-1.143c-1.579-0.396-1.665-1.351-1.215-2.641
	c0.289-0.828,0.507-1.681,0.754-2.522c0.32-1.089,0.64-2.178,0.959-3.267c-0.146-0.078-0.29-0.156-0.436-0.234
	c-0.238,0.311-0.55,0.589-0.702,0.937c-0.272,0.623-0.4,1.312-0.678,1.933c-0.459,1.028-1.444,1.177-2.017,0.22
	c-1.718-2.876-3.9-5.517-4.635-8.913c-0.185-0.854-0.467-1.699-0.81-2.504c-0.16-0.376-0.573-0.645-0.872-0.962
	c-0.054,0.427-0.242,0.89-0.14,1.274c0.648,2.449,1.315,4.896,2.071,7.313c0.365,1.171,0.015,1.813-1.121,2.033
	c-1.162,0.227-1.378,0.932-1.364,2.008c0.053,4.26-0.014,8.519,0.042,12.776c0.016,1.202-0.269,2.098-1.415,2.6
	c-0.099,0-0.196,0-0.294,0c-1.311-0.561-1.66-1.617-1.649-2.954c0.035-3.964,0.017-7.93,0.009-11.894
	c0-0.521-0.055-1.039-0.084-1.559c-0.182-0.044-0.364-0.089-0.546-0.132c-0.15,0.476-0.428,0.951-0.432,1.428
	c-0.034,4.063-0.019,8.126-0.021,12.188c0,0.441,0.143,1.004-0.072,1.294c-0.388,0.523-0.987,1.206-1.516,1.221
	c-0.496,0.014-1.166-0.661-1.476-1.197c-0.262-0.455-0.144-1.143-0.149-1.729c-0.04-4.11-0.094-8.221-0.083-12.331
	c0.003-0.931-0.257-1.471-1.212-1.647c-1.343-0.249-1.721-0.979-1.276-2.328c0.763-2.313,1.406-4.667,2.045-7.02
	c0.109-0.402-0.047-0.878-0.081-1.319c-0.314,0.335-0.773,0.617-0.917,1.014c-0.634,1.742-1.159,3.522-1.761,5.276
	c-0.205,0.597-0.425,1.229-0.81,1.707c-0.249,0.311-0.861,0.576-1.213,0.484c-0.343-0.089-0.746-0.635-0.794-1.021
	c-0.081-0.661-0.022-1.392,0.181-2.027c1.085-3.394,2.246-6.763,3.354-10.149c0.491-1.503,1.457-2.217,3.059-2.177
	c2.005,0.049,4.013-0.008,6.021,0.018c1.89,0.023,2.866,0.772,3.464,2.563c1.234,3.705,2.452,7.416,3.727,11.107
	c0.291,0.845,0.783,1.62,1.182,2.427c0.129-0.01,0.258-0.019,0.386-0.027c0.341-0.979,0.748-1.942,1.005-2.945
	c0.401-1.563,1.311-2.306,2.948-2.235c1.417,0.062,2.839-0.011,4.258,0.023c1.402,0.035,2.357,0.611,2.804,2.082
	c0.822,2.708,1.781,5.374,2.697,8.053c0.106,0.31,0.301,0.589,0.455,0.881C127.786,195.922,127.786,196.117,127.786,196.313z"/>
<g>
	<g>
		<path fill="#E86624" d="M485.25,77.25c15.715,0,28.5,12.785,28.5,28.5s-12.785,28.5-28.5,28.5s-28.5-12.785-28.5-28.5
			S469.535,77.25,485.25,77.25 M485.25,75.75c-16.568,0-30,13.432-30,30c0,16.569,13.432,30,30,30s30-13.431,30-30
			C515.25,89.182,501.818,75.75,485.25,75.75L485.25,75.75z"/>
	</g>
</g>
<g>
	<path fill="none" stroke="#E86624" stroke-width="1.5" stroke-miterlimit="10" d="M121.033,22.971
		c0,8.03-14.533,30.036-14.533,30.036S91.967,31.001,91.967,22.971c0-8.025,6.506-14.533,14.533-14.533
		C114.525,8.438,121.033,14.946,121.033,22.971z"/>
	<circle fill="none" stroke="#E86624" stroke-width="1.5" stroke-miterlimit="10" cx="106.5" cy="22.971" r="5.813"/>
</g>
<g>
	<path fill="none" stroke="#E86624" stroke-width="1.5" stroke-miterlimit="10" d="M122.504,114.1c0,1.153-0.934,2.088-2.087,2.088
		H92.584c-1.153,0-2.088-0.935-2.088-2.088V93.226c0-1.153,0.935-2.088,2.088-2.088h27.833c1.153,0,2.087,0.935,2.087,2.088V114.1z"
		/>
	
		<line fill="none" stroke="#E86624" stroke-width="1.5" stroke-miterlimit="10" x1="96.758" y1="120.362" x2="116.242" y2="120.362"/>
	<polygon fill="none" stroke="#E86624" stroke-width="1.5" stroke-miterlimit="10" points="111.371,120.362 101.629,120.362 
		103.021,116.188 109.979,116.188 	"/>
	
		<rect x="93.279" y="93.921" fill="none" stroke="#E86624" stroke-width="1.5" stroke-miterlimit="10" width="26.441" height="16.699"/>
	<circle fill="none" stroke="#E86624" stroke-width="1.5" stroke-miterlimit="10" cx="106.5" cy="113.404" r="0.696"/>
</g>
<g>
	<path fill="#E86624" d="M246.879,97.13c0.023,0,0.047,0.001,0.069,0.003c0.492,0.036,0.875,0.452,0.87,0.946l-0.082,8.203
		l-0.005,0.524l0.322,0.413l3.554,4.551c0.719,0.92,1.805,1.448,2.98,1.448c0.316,0,0.632-0.04,0.938-0.118l2.206-0.564l-1.39-1.804
		l-3.867-5.02c-0.203-0.264-0.167-0.66,0.077-0.883c0.123-0.112,0.268-0.17,0.476-0.17c0.003,0,0.006,0,0.009,0
		c0.187,0.014,0.341,0.092,0.459,0.235l5.84,7.031c0.738,0.891,1.138,2.015,1.126,3.166l-0.083,8.53l-8.018,0.011l0.318-3.681
		l0.05-0.572l-0.346-0.458l-6.455-8.581c-0.49-0.65-0.729-1.459-0.674-2.274l0.689-10.061c0.018-0.257,0.129-0.479,0.32-0.646
		C246.438,97.21,246.65,97.13,246.879,97.13 M246.879,95.63c-0.588,0-1.149,0.209-1.598,0.598c-0.493,0.428-0.789,1.023-0.834,1.676
		l-0.689,10.062c-0.08,1.175,0.264,2.339,0.972,3.279l6.455,8.58l-0.396,4.573c-0.017,0.189,0.047,0.378,0.177,0.519
		c0.128,0.14,0.31,0.219,0.5,0.219h0.001l9.725-0.013c0.372-0.001,0.676-0.301,0.679-0.673l0.091-9.342
		c0.016-1.507-0.508-2.976-1.471-4.138l-5.841-7.032c-0.379-0.457-0.914-0.731-1.507-0.773c-0.052-0.004-0.104-0.006-0.155-0.006
		c-0.537,0-1.044,0.198-1.444,0.562c-0.822,0.749-0.936,2.025-0.258,2.907l3.868,5.021c-0.187,0.048-0.376,0.071-0.565,0.071
		c-0.682,0-1.354-0.303-1.798-0.871l-3.554-4.551l0.082-8.203c0.012-1.284-0.979-2.363-2.261-2.457
		C246.998,95.633,246.938,95.63,246.879,95.63L246.879,95.63z"/>
</g>
<g>
	<path fill="#E86624" d="M268.665,87.865c1.643,0,3.186,0.639,4.345,1.798c1.158,1.159,1.797,2.702,1.797,4.346
		c0,1.645-0.639,3.188-1.797,4.346L263,108.364l-10.01-10.01c-1.161-1.161-1.801-2.703-1.801-4.345c0-1.641,0.64-3.185,1.801-4.347
		c1.159-1.159,2.702-1.798,4.345-1.798s3.187,0.639,4.341,1.792l0.257,0.26l1.063,1.074l1.066-1.07l0.257-0.258
		C265.479,88.504,267.022,87.865,268.665,87.865 M268.665,86.365c-2.043,0-3.963,0.794-5.407,2.237l-0.259,0.26l-0.257-0.26
		c-1.444-1.443-3.365-2.237-5.407-2.237s-3.962,0.794-5.405,2.237c-1.444,1.445-2.24,3.365-2.24,5.407s0.796,3.962,2.24,5.405
		l10.591,10.591c0.131,0.133,0.305,0.199,0.479,0.199s0.349-0.066,0.48-0.199l10.591-10.591c2.981-2.98,2.981-7.831,0-10.813
		C272.627,87.159,270.707,86.365,268.665,86.365L268.665,86.365z"/>
</g>
<g>
	<path fill="#E86624" d="M279.121,97.13c0.228,0,0.44,0.08,0.615,0.231c0.191,0.166,0.303,0.39,0.32,0.645l0.689,10.061
		c0.056,0.816-0.184,1.625-0.674,2.275l-6.457,8.58l-0.346,0.46l0.05,0.572l0.319,3.68l-8.017-0.011l-0.084-8.53
		c-0.012-1.151,0.389-2.274,1.126-3.163l5.84-7.035c0.117-0.14,0.275-0.222,0.503-0.235c0.168,0,0.316,0.058,0.44,0.169
		c0.245,0.225,0.28,0.621,0.078,0.884l-3.867,5.021l-1.389,1.803l2.205,0.565c0.305,0.078,0.621,0.118,0.938,0.118
		c1.176,0,2.262-0.528,2.979-1.447l3.555-4.551l0.323-0.414l-0.005-0.524l-0.082-8.203c-0.005-0.495,0.377-0.91,0.869-0.946
		C279.074,97.131,279.098,97.13,279.121,97.13 M279.121,95.63c-0.06,0-0.119,0.003-0.179,0.007
		c-1.281,0.094-2.273,1.173-2.261,2.457l0.082,8.203l-3.555,4.551c-0.443,0.568-1.116,0.871-1.797,0.871
		c-0.189,0-0.38-0.023-0.565-0.071l3.867-5.021c0.679-0.882,0.565-2.158-0.257-2.907c-0.402-0.364-0.912-0.561-1.45-0.561
		c-0.05,0-0.1,0.002-0.15,0.005c-0.592,0.042-1.128,0.316-1.507,0.773l-5.84,7.034c-0.963,1.16-1.486,2.629-1.472,4.136l0.092,9.342
		c0.003,0.372,0.305,0.673,0.678,0.673l9.726,0.013h0.001c0.19,0,0.372-0.079,0.5-0.219c0.13-0.141,0.193-0.329,0.177-0.519
		l-0.397-4.573l6.457-8.58c0.708-0.94,1.052-2.104,0.972-3.279l-0.689-10.062c-0.045-0.652-0.341-1.248-0.835-1.676
		C280.269,95.839,279.708,95.63,279.121,95.63L279.121,95.63z"/>
</g>
<g>
	<polyline fill="none" stroke="#E86624" stroke-width="1.2714" stroke-miterlimit="10" points="339.295,101.175 342.089,101.175 
		342.089,106.765 347.679,101.175 352.569,101.175 352.569,88.599 331.609,88.599 331.609,94.188 	"/>
	<path fill="none" stroke="#E86624" stroke-width="1.2714" stroke-miterlimit="10" d="M328.116,110.52v3.048l-5.508,1.974
		c-1.317,0.469-2.178,1.718-2.178,3.117v2.079h20.96v-2.079c0-1.399-0.86-2.648-2.178-3.117l-5.508-1.974v-3.224"/>
	
		<ellipse fill="none" stroke="#E86624" stroke-width="1.2714" stroke-miterlimit="10" cx="330.772" cy="104.742" rx="5.516" ry="6.619"/>
	<path fill="none" stroke="#E86624" stroke-width="1.2714" stroke-miterlimit="10" d="M336.26,104.141
		c-0.186,0.026-0.335,0.015-0.522,0.05c-1.879,0.361-3.086-0.319-4.12-2.129c-0.62,1.189-2.56,2.129-4.153,2.129
		c-0.784,0-1.46-0.161-2.136-0.515"/>
	<g>
		<g>
			<polygon fill="none" stroke="#E86624" stroke-width="1.2714" stroke-miterlimit="10" points="347.679,94.887 346.281,94.887 
				346.281,96.284 347.679,96.284 347.679,94.887 			"/>
		</g>
	</g>
	<g>
		<g>
			<polygon fill="none" stroke="#E86624" stroke-width="1.2714" stroke-miterlimit="10" points="343.486,94.887 342.089,94.887 
				342.089,96.284 343.486,96.284 343.486,94.887 			"/>
		</g>
	</g>
	<g>
		<g>
			<polygon fill="none" stroke="#E86624" stroke-width="1.2714" stroke-miterlimit="10" points="339.295,94.887 337.897,94.887 
				337.897,96.284 339.295,96.284 339.295,94.887 			"/>
		</g>
	</g>
</g>
<path fill="#E86624" d="M501.848,109.304c-1.26-1.26-4.77-3.272-10.727-6.154c-0.383-0.185-0.842-0.024-1.027,0.357
	c-0.186,0.383-0.023,0.843,0.357,1.027c7.125,3.446,9.539,5.087,10.311,5.857c1.451,1.451,2.25,3.381,2.25,5.435
	c0,0.903-0.154,1.782-0.451,2.608c-0.059-0.229-0.125-0.463-0.209-0.702c-0.611-1.791-1.875-3.702-3.553-5.38
	c-2.516-2.517-13.156-9.861-18.377-13.416l0.65-0.651c0.301-0.301,0.301-0.788,0-1.088l-10.521-10.521
	c-0.299-0.301-0.787-0.301-1.088,0l-3.287,3.288c-0.145,0.145-0.225,0.34-0.225,0.543c0,0.204,0.08,0.4,0.225,0.545l10.523,10.521
	c0.143,0.145,0.338,0.225,0.543,0.225c0.203,0,0.398-0.08,0.543-0.225l0.164-0.164c3.176,7.194,8.381,18.465,10.854,20.939
	c1.744,1.742,4.059,2.701,6.523,2.701c2.463,0,4.779-0.959,6.521-2.701s2.701-4.059,2.701-6.522S503.59,111.047,501.848,109.304z
	 M495.326,123.513c-2.053,0-3.982-0.801-5.436-2.252c-1.463-1.464-4.604-7.389-8.627-16.217c3.744,5.412,8.631,12.296,10.59,14.255
	c1.678,1.679,3.588,2.94,5.379,3.554c0.24,0.082,0.475,0.15,0.703,0.206C497.109,123.356,496.23,123.513,495.326,123.513z
	 M501.141,120.553l-14.039-14.04c-0.301-0.3-0.787-0.3-1.088,0c-0.301,0.301-0.301,0.788,0,1.088l14.039,14.04
	c-0.596,0.152-1.396,0.073-2.322-0.243c-1.574-0.539-3.275-1.67-4.791-3.186c-2.355-2.355-9.281-12.361-12.908-17.68
	c5.328,3.632,15.324,10.553,17.68,12.908c1.516,1.516,2.646,3.217,3.188,4.791C501.215,119.155,501.293,119.958,501.141,120.553z"/>
<g>
	<path fill="#E86624" d="M487.325,101.433c-0.289,0-0.565,0.164-0.696,0.444c-0.18,0.386-0.012,0.843,0.373,1.021
		c0.334,0.155,0.67,0.313,1.008,0.472c0.105,0.051,0.217,0.073,0.326,0.073c0.289,0,0.564-0.163,0.695-0.442
		c0.182-0.384,0.018-0.842-0.367-1.022c-0.34-0.159-0.678-0.317-1.014-0.474C487.545,101.456,487.435,101.433,487.325,101.433
		L487.325,101.433z"/>
</g>
<g>
	<path fill="none" stroke="#E86624" stroke-width="1.5" stroke-miterlimit="10" d="M557.153,113.734l13.081-13.082
		c1.981,0.84,4.355,0.455,5.973-1.16c1.613-1.613,1.998-3.891,1.159-5.871l-2.603,2.705h-2.887v-3.088l2.605-2.605
		c-1.983-0.84-4.36-0.453-5.975,1.162s-2,3.989-1.162,5.972l-13.079,13.081c-1.981-0.84-4.357-0.453-5.972,1.162
		c-1.615,1.616-2,3.989-1.162,5.973l2.605-2.605h3.088v2.887l-2.705,2.604c1.982,0.837,4.307,0.452,5.921-1.161
		C557.658,118.094,557.991,115.715,557.153,113.734z"/>
	<path fill="none" stroke="#E86624" stroke-width="1.5" stroke-miterlimit="10" d="M562.25,102.861l-5.097-5.095
		c0.838-1.982,0.454-4.356-1.162-5.972c-1.614-1.615-3.888-2.002-5.87-1.162l2.705,2.605v3.088h-3.088l-2.605-2.705
		c-0.838,1.98-0.453,4.306,1.162,5.921c1.614,1.616,3.99,1.976,5.972,1.138l5.097,5.082"/>
	<path fill="none" stroke="#E86624" stroke-width="1.5" stroke-miterlimit="10" d="M562.25,108.635l5.098,5.1
		c-0.838,1.982-0.454,4.359,1.162,5.973c1.614,1.615,3.99,1.998,5.973,1.161l-2.605-2.604v-2.887h2.887l2.604,2.605
		c0.839-1.983,0.453-4.356-1.16-5.973c-1.615-1.615-3.991-2.002-5.973-1.162l-5.096-5.097"/>
</g>
<g>
	<polygon fill="none" stroke="#E86624" stroke-width="1.5" stroke-miterlimit="10" points="637.25,101.299 651.625,94.111 
		651.625,116.395 637.25,123.582 622.875,116.395 622.875,94.111 	"/>
	<polyline fill="none" stroke="#E86624" stroke-width="1.5" stroke-miterlimit="10" points="648.747,91.922 637.247,97.742 
		625.747,91.922 	"/>
	
		<line fill="none" stroke="#E86624" stroke-width="1.5" stroke-miterlimit="10" x1="637.25" y1="101.299" x2="637.25" y2="123.582"/>
</g>
<text transform="matrix(1 0 0 1 0 144.6768)" font-family="'SourceSansPro-Regular'" font-size="5">Corrections</text>
<text transform="matrix(1 0 0 1 76.5 144.6768)" font-family="'SourceSansPro-Regular'" font-size="5">IT</text>
<text transform="matrix(1 0 0 1 153.5615 144.6768)" font-family="'SourceSansPro-Regular'" font-size="5">Medical</text>
<text transform="matrix(1 0 0 1 232.625 144.6768)" font-family="'SourceSansPro-Regular'" font-size="5">HR</text>
<text transform="matrix(1 0 0 1 306.6836 144.6768)" font-family="'SourceSansPro-Regular'" font-size="5">HR</text>
<text transform="matrix(1 0 0 1 381.7441 144.6768)" font-family="'SourceSansPro-Regular'" font-size="5">Agribusiness</text>
<text transform="matrix(1 0 0 1 455.8027 144.6768)" font-family="'SourceSansPro-Regular'" font-size="5">Food Services</text>
<text transform="matrix(1 0 0 1 532.8652 144.6768)" font-family="'SourceSansPro-Regular'" font-size="5">Trades</text>
<text transform="matrix(1 0 0 1 606.9238 144.6768)" font-family="'SourceSansPro-Regular'" font-size="5">Education/Development</text>
<g>
	<path fill="none" stroke="#E86624" stroke-width="1.5" stroke-miterlimit="10" d="M192.176,92.286
		c-3.196,0-6.045-1.486-7.913-3.807h-0.025c-1.868,2.32-4.718,3.807-7.91,3.807c-2.796,0-5.331-1.139-7.967-2.979v23.535
		c0,0,2.307,8.371,15.89,12.18c13.587-3.809,15.889-12.18,15.889-12.18V89.308C197.504,91.147,194.972,92.286,192.176,92.286z"/>
	<polygon fill="none" stroke="#E86624" stroke-width="1.5" stroke-miterlimit="10" points="192.194,102.813 187.428,102.813 
		187.428,98.046 181.071,98.046 181.071,102.813 176.306,102.813 176.306,109.169 181.071,109.169 181.071,113.935 187.428,113.935 
		187.428,109.169 192.194,109.169 	"/>
</g>
<g>
	<g>
		<path fill="#E86624" d="M862.584,77.25c15.715,0,28.5,12.785,28.5,28.5s-12.785,28.5-28.5,28.5s-28.5-12.785-28.5-28.5
			S846.869,77.25,862.584,77.25 M862.584,75.75c-16.568,0-30,13.432-30,30c0,16.569,13.432,30,30,30s30-13.431,30-30
			C892.584,89.182,879.152,75.75,862.584,75.75L862.584,75.75z"/>
	</g>
</g>
<polyline fill="none" stroke="#E86624" stroke-width="1.5" stroke-linecap="round" stroke-miterlimit="10" points="854.37,101.676 
	862.801,110.813 879.018,93.894 "/>
<polyline fill="none" stroke="#E86624" stroke-width="1.5" stroke-linecap="round" stroke-miterlimit="10" points="867.851,94.433 
	850.018,94.433 850.018,117.669 872.998,117.669 872.998,108.771 "/>
<g>
	<g>
		<path fill="#E86624" d="M30,60C13.458,60,0,46.543,0,30C0,13.458,13.458,0,30,0c16.543,0,30,13.458,30,30
			C60,46.543,46.543,60,30,60z M30,1.463C14.265,1.463,1.463,14.265,1.463,30c0,15.735,12.802,28.536,28.537,28.536
			c15.735,0,28.536-12.801,28.536-28.536C58.536,14.265,45.735,1.463,30,1.463z M40.266,52.144l-2.51-5.383
			c-2.783,1.002-13.59,3.695-22.056-10.967l-1.424-2.468l2.437,1.476c3.467,2.099,6.952,3.163,10.357,3.163
			c2.896,0,4.973-0.78,5.917-1.222l-2.76-5.927l17.931,4.636L40.266,52.144z M38.478,44.847l1.798,3.854l5.804-12.274L32.863,33.01
			l2.017,4.333l-0.547,0.343c-0.113,0.071-2.827,1.743-7.263,1.743c-2.858,0-5.754-0.687-8.64-2.044
			c8.787,12.77,19.333,7.8,19.382,7.778L38.478,44.847z"/>
	</g>
	<g>
		<path fill="#E86624" d="M26.206,36.174c-7.198,0-13.054-5.855-13.054-13.054s5.856-13.054,13.054-13.054
			c3.48,0,6.757,1.359,9.225,3.829c2.468,2.469,3.825,5.745,3.822,9.225c0,2.925-0.952,5.694-2.751,8.008
			c-0.058,0.074-0.117,0.148-0.179,0.222l-1.466-0.431c1.944-2.148,3.016-4.913,3.016-7.799c0-6.434-5.234-11.669-11.667-11.669
			c-6.434,0-11.669,5.235-11.669,11.669c0,6.434,5.235,11.667,11.669,11.667c1.285,0,2.566-0.221,3.813-0.656l0.525,1.292
			C29.148,35.921,27.691,36.174,26.206,36.174z"/>
	</g>
	<g>
		<path fill="#E86624" d="M27.925,30.307h-3.336v-1.11h-2.866v-4.433h3.018l0.167,0.185c0.165,0.182,0.33,0.349,0.495,0.481
			c0.169,0.14,0.325,0.245,0.468,0.32c0.157,0.079,0.317,0.131,0.496,0.164c0.443,0.095,1.084,0.107,1.403-0.092
			c0.134-0.083,0.134-0.132,0.134-0.165c0-0.086-0.022-0.151-0.072-0.21c-0.087-0.103-0.213-0.2-0.373-0.289
			c-0.156-0.085-0.346-0.16-0.596-0.233c-0.23-0.06-0.464-0.106-0.704-0.147c-0.938-0.145-1.717-0.375-2.309-0.685
			c-0.595-0.319-1.066-0.676-1.404-1.065c-0.35-0.403-0.581-0.828-0.688-1.262c-0.099-0.403-0.147-0.755-0.147-1.076
			c0-0.483,0.087-0.937,0.261-1.351c0.185-0.437,0.434-0.815,0.742-1.13c0.295-0.311,0.665-0.583,1.091-0.804
			c0.28-0.142,0.576-0.251,0.885-0.33v-1.142h3.331v1.103h3.09v4.44h-3.034l-0.167-0.184c-0.166-0.183-0.318-0.35-0.474-0.486
			c-0.143-0.128-0.287-0.23-0.429-0.307c-0.158-0.077-0.327-0.139-0.494-0.181c-0.379-0.081-1.058-0.103-1.303,0.117
			c-0.113,0.099-0.167,0.182-0.167,0.254c0,0.338,0.646,0.638,1.729,0.803c1.003,0.15,1.783,0.391,2.383,0.735
			c0.609,0.354,1.078,0.742,1.397,1.153c0.327,0.411,0.548,0.846,0.652,1.288c0.093,0.443,0.133,0.745,0.133,0.989
			c0,0.499-0.104,0.975-0.307,1.415c-0.185,0.413-0.461,0.794-0.818,1.127c-0.336,0.315-0.732,0.567-1.21,0.773
			c-0.31,0.124-0.635,0.216-0.975,0.277V30.307z M25.713,29.183h1.088v-0.947l0.516-0.042c0.417-0.034,0.805-0.121,1.151-0.26
			c0.344-0.148,0.633-0.331,0.874-0.556c0.247-0.23,0.436-0.491,0.563-0.773c0.138-0.297,0.206-0.613,0.206-0.948
			c0-0.159-0.035-0.403-0.106-0.745c-0.063-0.266-0.211-0.551-0.438-0.837c-0.234-0.302-0.595-0.594-1.076-0.874
			c-0.467-0.268-1.137-0.469-1.988-0.597c-1.782-0.271-2.685-0.916-2.685-1.915c0-0.283,0.095-0.702,0.547-1.097
			c0.336-0.301,0.804-0.457,1.385-0.457c0.341,0,0.642,0.029,0.917,0.088c0.261,0.064,0.501,0.153,0.75,0.274
			c0.241,0.128,0.458,0.281,0.664,0.466c0.128,0.113,0.257,0.244,0.391,0.387h1.415v-2.192h-1.081v0.894l-0.846-0.497
			c-0.234-0.137-0.489-0.247-0.759-0.325l-0.405-0.118v-1.056h-1.082v0.967l-0.483,0.069c-0.365,0.052-0.707,0.157-1.015,0.313
			c-0.31,0.16-0.578,0.356-0.792,0.583c-0.215,0.22-0.387,0.482-0.516,0.786c-0.114,0.273-0.172,0.582-0.172,0.915
			c0,0.226,0.039,0.497,0.115,0.807c0.063,0.257,0.217,0.531,0.445,0.794c0.248,0.285,0.612,0.557,1.082,0.808
			c0.477,0.25,1.139,0.442,1.964,0.569c0.28,0.048,0.545,0.101,0.824,0.174c0.346,0.102,0.607,0.206,0.837,0.332
			c0.282,0.156,0.513,0.34,0.688,0.547c0.222,0.262,0.339,0.585,0.339,0.937c0,0.322-0.115,0.776-0.663,1.118
			c-0.35,0.218-0.784,0.329-1.289,0.329c-0.345,0-0.657-0.029-0.928-0.088c-0.265-0.047-0.529-0.135-0.789-0.265
			c-0.225-0.117-0.441-0.262-0.667-0.45c-0.138-0.109-0.286-0.247-0.446-0.413h-1.401v2.185h1.083v-0.818l0.806,0.388
			c0.099,0.048,0.2,0.095,0.307,0.142l0.671,0.297V29.183z"/>
	</g>
</g>
</svg>
